{
    "basename": "asr-global_scope5-a66d166",
    "cmd": "lfortran --show-asr --no-color {infile} -o {outfile}",
    "infile": "tests/global_scope5.f90",
    "infile_hash": "63e512d3fe5d83aa6195002b9c31ddc77e1a93ac37df38989f782ed7",
    "outfile": null,
    "outfile_hash": null,
    "stdout": "asr-global_scope5-a66d166.stdout",
    "stdout_hash": "ae4e5f658003239e383dc43d49a87d66658ed64bc924094b262924dd",
    "stderr": null,
    "stderr_hash": null,
    "returncode": 0
}