{
    "basename": "asr-cond_02-373a22a",
    "cmd": "lfortran --show-asr --no-color {infile} -o {outfile}",
    "infile": "tests/../integration_tests/cond_02.f90",
    "infile_hash": "fc70f7e7943dfe505736cca5b8ff39a034a4a1a7f441d9bdf0a82662",
    "outfile": null,
    "outfile_hash": null,
    "stdout": "asr-cond_02-373a22a.stdout",
    "stdout_hash": "66ed7f045c5f1e65f8c433bb28f0e24713da03a604eba64d50b66b1a",
    "stderr": null,
    "stderr_hash": null,
    "returncode": 0
}