{
    "basename": "asr-modules_11-dd72b29",
    "cmd": "lfortran --show-asr --no-color {infile} -o {outfile}",
    "infile": "tests/../integration_tests/modules_11.f90",
    "infile_hash": "3adf54a582ee98feab0583ed3cb0093df888f323e87e2cb7defcef52",
    "outfile": null,
    "outfile_hash": null,
    "stdout": "asr-modules_11-dd72b29.stdout",
    "stdout_hash": "d6ba0a025c59b8b961274a902146f7d30644ba3fa7185deae804d190",
    "stderr": null,
    "stderr_hash": null,
    "returncode": 0
}