{
    "basename": "asr-string_03-7320626",
    "cmd": "lfortran --show-asr --no-color {infile} -o {outfile}",
    "infile": "tests/../integration_tests/string_03.f90",
    "infile_hash": "7815b8703dfd3a1c61cab40604e20693508878e8a90e450834ce592b",
    "outfile": null,
    "outfile_hash": null,
    "stdout": "asr-string_03-7320626.stdout",
    "stdout_hash": "64b046a1cb86e43858f5c763607bf2a42c58950f4164a3bcc1dedf5f",
    "stderr": null,
    "stderr_hash": null,
    "returncode": 0
}