{
    "basename": "asr-array_02_pack-233bae0",
    "cmd": "lfortran --show-asr --no-color {infile} -o {outfile}",
    "infile": "tests/../integration_tests/array_02_pack.f90",
    "infile_hash": "e8cba947b5e36421a6fb8cd26366ae14e60a3fa9b71c7d6c563d09af",
    "outfile": null,
    "outfile_hash": null,
    "stdout": "asr-array_02_pack-233bae0.stdout",
    "stdout_hash": "31257159de3c5db55427c9c6b713c555fc4f3a9cfa3b25167275166c",
    "stderr": null,
    "stderr_hash": null,
    "returncode": 0
}