{
    "basename": "asr-arrays_06-9c8a08b",
    "cmd": "lfortran --show-asr --no-color {infile} -o {outfile}",
    "infile": "tests/../integration_tests/arrays_06.f90",
    "infile_hash": "a4c39183fd67961c13cfe82b7a1c45556b6d9ca3c31f9aa3e9c8350f",
    "outfile": null,
    "outfile_hash": null,
    "stdout": "asr-arrays_06-9c8a08b.stdout",
    "stdout_hash": "f37ddf01477058986fb2fb94289c8f83203493029177630de98eb0f0",
    "stderr": null,
    "stderr_hash": null,
    "returncode": 0
}