{
    "basename": "asr-arrays_op_7-52a6b5a",
    "cmd": "lfortran --show-asr --no-color {infile} -o {outfile}",
    "infile": "tests/../integration_tests/arrays_op_7.f90",
    "infile_hash": "28ac5e279c932606f8621e87d76c7bd8acb9b2560fd784a6e1bdba4d",
    "outfile": null,
    "outfile_hash": null,
    "stdout": "asr-arrays_op_7-52a6b5a.stdout",
    "stdout_hash": "ff67de099cd8b136b39c7ad76099a1212a37910b88dd1724f87c0e73",
    "stderr": null,
    "stderr_hash": null,
    "returncode": 0
}