{
    "basename": "asr-intrinsics_06-8523892",
    "cmd": "lfortran --show-asr --no-color {infile} -o {outfile}",
    "infile": "tests/../integration_tests/intrinsics_06.f90",
    "infile_hash": "159c10373053040b4614f7468175543b4735da80807fbb7ef9bad071",
    "outfile": null,
    "outfile_hash": null,
    "stdout": "asr-intrinsics_06-8523892.stdout",
    "stdout_hash": "48839b21301cff94c776eb9c891a96d3da76172eebf647da4af51088",
    "stderr": null,
    "stderr_hash": null,
    "returncode": 0
}