{
    "basename": "asr-div_to_mul-3aaf3c0",
    "cmd": "lfortran --show-asr --no-color {infile} -o {outfile}",
    "infile": "tests/../integration_tests/div_to_mul.f90",
    "infile_hash": "6c1d702f410e8db6aae79c37b446d7a2fd6295166902746ff799d239",
    "outfile": null,
    "outfile_hash": null,
    "stdout": "asr-div_to_mul-3aaf3c0.stdout",
    "stdout_hash": "5107f9e395290a2e418db25fdbd4785aa511b56a868f5f6ff998775e",
    "stderr": null,
    "stderr_hash": null,
    "returncode": 0
}