{
    "basename": "asr-boz_01-dedad59",
    "cmd": "lfortran --show-asr --no-color {infile} -o {outfile}",
    "infile": "tests/../integration_tests/boz_01.f90",
    "infile_hash": "0834d7e263b86abd28671af7f096f5f3359c8ff113f86332bed9c187",
    "outfile": null,
    "outfile_hash": null,
    "stdout": "asr-boz_01-dedad59.stdout",
    "stdout_hash": "01dc911f931affde75f156f103f7e2812565bf9da1888222fcbcb1ae",
    "stderr": null,
    "stderr_hash": null,
    "returncode": 0
}