{
    "basename": "asr-int_03-924441d",
    "cmd": "lfortran --show-asr --no-color {infile} -o {outfile}",
    "infile": "tests/../integration_tests/int_03.f90",
    "infile_hash": "e8b652fe103338a6d8caf4e51635132f343995c89c0bcdaf633f925e",
    "outfile": null,
    "outfile_hash": null,
    "stdout": "asr-int_03-924441d.stdout",
    "stdout_hash": "b2f4fe730af926c3e03c39d320a5ad4aa3831d6544295ba4b493088c",
    "stderr": null,
    "stderr_hash": null,
    "returncode": 0
}