{
    "basename": "cpp-array3-a2f045b",
    "cmd": "lfortran --no-color --show-cpp {infile}",
    "infile": "tests/array3.f90",
    "infile_hash": "047ac01d7e3df52429d6889258f37213048937dae8611af6cbd9ecae",
    "outfile": null,
    "outfile_hash": null,
    "stdout": "cpp-array3-a2f045b.stdout",
    "stdout_hash": "75d381d3e2464b0098656df31118eaa751761b5d7b103f5b724b05d2",
    "stderr": null,
    "stderr_hash": null,
    "returncode": 0
}