; ModuleID = 'LFortran'
source_filename = "LFortran"

%array = type { i32*, i32, %dimension_descriptor*, i1, i32 }
%dimension_descriptor = type { i32, i32, i32, i32 }

@0 = private unnamed_addr constant [4 x i8] c"%d\0A\00", align 1

define i32 @whole_square(%array* %a, %array* %b, %array* %c) {
.entry:
  %"1_t" = alloca i32, align 4
  %"1_v" = alloca i32, align 4
  %a_2 = alloca %array, align 8
  %0 = getelementptr %array, %array* %a_2, i32 0, i32 2
  %1 = alloca i32, align 4
  store i32 1, i32* %1, align 4
  %2 = load i32, i32* %1, align 4
  %3 = alloca %dimension_descriptor, i32 %2, align 8
  store %dimension_descriptor* %3, %dimension_descriptor** %0, align 8
  %4 = getelementptr %array, %array* %a_2, i32 0, i32 4
  store i32 1, i32* %4, align 4
  %5 = getelementptr %array, %array* %a_2, i32 0, i32 3
  store i1 false, i1* %5, align 1
  %ab = alloca %array, align 8
  %6 = getelementptr %array, %array* %ab, i32 0, i32 2
  %7 = alloca i32, align 4
  store i32 1, i32* %7, align 4
  %8 = load i32, i32* %7, align 4
  %9 = alloca %dimension_descriptor, i32 %8, align 8
  store %dimension_descriptor* %9, %dimension_descriptor** %6, align 8
  %10 = getelementptr %array, %array* %ab, i32 0, i32 4
  store i32 1, i32* %10, align 4
  %11 = getelementptr %array, %array* %ab, i32 0, i32 3
  store i1 false, i1* %11, align 1
  %abc = alloca %array, align 8
  %12 = getelementptr %array, %array* %abc, i32 0, i32 2
  %13 = alloca i32, align 4
  store i32 1, i32* %13, align 4
  %14 = load i32, i32* %13, align 4
  %15 = alloca %dimension_descriptor, i32 %14, align 8
  store %dimension_descriptor* %15, %dimension_descriptor** %12, align 8
  %16 = getelementptr %array, %array* %abc, i32 0, i32 4
  store i32 1, i32* %16, align 4
  %17 = getelementptr %array, %array* %abc, i32 0, i32 3
  store i1 false, i1* %17, align 1
  %b_2 = alloca %array, align 8
  %18 = getelementptr %array, %array* %b_2, i32 0, i32 2
  %19 = alloca i32, align 4
  store i32 1, i32* %19, align 4
  %20 = load i32, i32* %19, align 4
  %21 = alloca %dimension_descriptor, i32 %20, align 8
  store %dimension_descriptor* %21, %dimension_descriptor** %18, align 8
  %22 = getelementptr %array, %array* %b_2, i32 0, i32 4
  store i32 1, i32* %22, align 4
  %23 = getelementptr %array, %array* %b_2, i32 0, i32 3
  store i1 false, i1* %23, align 1
  %bc = alloca %array, align 8
  %24 = getelementptr %array, %array* %bc, i32 0, i32 2
  %25 = alloca i32, align 4
  store i32 1, i32* %25, align 4
  %26 = load i32, i32* %25, align 4
  %27 = alloca %dimension_descriptor, i32 %26, align 8
  store %dimension_descriptor* %27, %dimension_descriptor** %24, align 8
  %28 = getelementptr %array, %array* %bc, i32 0, i32 4
  store i32 1, i32* %28, align 4
  %29 = getelementptr %array, %array* %bc, i32 0, i32 3
  store i1 false, i1* %29, align 1
  %c_2 = alloca %array, align 8
  %30 = getelementptr %array, %array* %c_2, i32 0, i32 2
  %31 = alloca i32, align 4
  store i32 1, i32* %31, align 4
  %32 = load i32, i32* %31, align 4
  %33 = alloca %dimension_descriptor, i32 %32, align 8
  store %dimension_descriptor* %33, %dimension_descriptor** %30, align 8
  %34 = getelementptr %array, %array* %c_2, i32 0, i32 4
  store i32 1, i32* %34, align 4
  %35 = getelementptr %array, %array* %c_2, i32 0, i32 3
  store i1 false, i1* %35, align 1
  %ca = alloca %array, align 8
  %36 = getelementptr %array, %array* %ca, i32 0, i32 2
  %37 = alloca i32, align 4
  store i32 1, i32* %37, align 4
  %38 = load i32, i32* %37, align 4
  %39 = alloca %dimension_descriptor, i32 %38, align 8
  store %dimension_descriptor* %39, %dimension_descriptor** %36, align 8
  %40 = getelementptr %array, %array* %ca, i32 0, i32 4
  store i32 1, i32* %40, align 4
  %41 = getelementptr %array, %array* %ca, i32 0, i32 3
  store i1 false, i1* %41, align 1
  %n = alloca i32, align 4
  %status = alloca i32, align 4
  %"~0_bin_op_res" = alloca %array, align 8
  %42 = getelementptr %array, %array* %a, i32 0, i32 2
  %43 = load %dimension_descriptor*, %dimension_descriptor** %42, align 8
  %44 = getelementptr inbounds %dimension_descriptor, %dimension_descriptor* %43, i32 0
  %45 = getelementptr %dimension_descriptor, %dimension_descriptor* %44, i32 0, i32 1
  %46 = load i32, i32* %45, align 4
  %47 = getelementptr %array, %array* %a, i32 0, i32 2
  %48 = load %dimension_descriptor*, %dimension_descriptor** %47, align 8
  %49 = getelementptr inbounds %dimension_descriptor, %dimension_descriptor* %48, i32 0
  %50 = getelementptr %dimension_descriptor, %dimension_descriptor* %49, i32 0, i32 2
  %51 = load i32, i32* %50, align 4
  %52 = getelementptr %array, %array* %"~0_bin_op_res", i32 0, i32 1
  store i32 0, i32* %52, align 4
  %53 = getelementptr %array, %array* %"~0_bin_op_res", i32 0, i32 2
  %54 = alloca i32, align 4
  store i32 1, i32* %54, align 4
  %55 = load i32, i32* %54, align 4
  %56 = alloca %dimension_descriptor, i32 %55, align 8
  %57 = getelementptr %array, %array* %"~0_bin_op_res", i32 0, i32 4
  store i32 1, i32* %57, align 4
  store %dimension_descriptor* %56, %dimension_descriptor** %53, align 8
  %58 = load %dimension_descriptor*, %dimension_descriptor** %53, align 8
  %59 = getelementptr inbounds %dimension_descriptor, %dimension_descriptor* %58, i32 0
  %60 = getelementptr %dimension_descriptor, %dimension_descriptor* %59, i32 0, i32 0
  %61 = getelementptr %dimension_descriptor, %dimension_descriptor* %59, i32 0, i32 1
  %62 = getelementptr %dimension_descriptor, %dimension_descriptor* %59, i32 0, i32 2
  %63 = getelementptr %dimension_descriptor, %dimension_descriptor* %59, i32 0, i32 3
  store i32 1, i32* %60, align 4
  store i32 %46, i32* %61, align 4
  store i32 %51, i32* %62, align 4
  %64 = load i32, i32* %62, align 4
  %65 = load i32, i32* %61, align 4
  %66 = sub i32 %64, %65
  %67 = add i32 %66, 1
  store i32 %67, i32* %63, align 4
  %68 = alloca i32, align 4
  %69 = sub i32 %51, %46
  %70 = add i32 %69, 1
  %71 = mul i32 1, %70
  store i32 %71, i32* %68, align 4
  %72 = getelementptr %array, %array* %"~0_bin_op_res", i32 0, i32 0
  %73 = load i32, i32* %68, align 4
  %74 = alloca i32, i32 %73, align 4
  store i32* %74, i32** %72, align 8
  %"~1_bin_op_res" = alloca %array, align 8
  %75 = getelementptr %array, %array* %b, i32 0, i32 2
  %76 = load %dimension_descriptor*, %dimension_descriptor** %75, align 8
  %77 = getelementptr inbounds %dimension_descriptor, %dimension_descriptor* %76, i32 0
  %78 = getelementptr %dimension_descriptor, %dimension_descriptor* %77, i32 0, i32 1
  %79 = load i32, i32* %78, align 4
  %80 = getelementptr %array, %array* %b, i32 0, i32 2
  %81 = load %dimension_descriptor*, %dimension_descriptor** %80, align 8
  %82 = getelementptr inbounds %dimension_descriptor, %dimension_descriptor* %81, i32 0
  %83 = getelementptr %dimension_descriptor, %dimension_descriptor* %82, i32 0, i32 2
  %84 = load i32, i32* %83, align 4
  %85 = getelementptr %array, %array* %"~1_bin_op_res", i32 0, i32 1
  store i32 0, i32* %85, align 4
  %86 = getelementptr %array, %array* %"~1_bin_op_res", i32 0, i32 2
  %87 = alloca i32, align 4
  store i32 1, i32* %87, align 4
  %88 = load i32, i32* %87, align 4
  %89 = alloca %dimension_descriptor, i32 %88, align 8
  %90 = getelementptr %array, %array* %"~1_bin_op_res", i32 0, i32 4
  store i32 1, i32* %90, align 4
  store %dimension_descriptor* %89, %dimension_descriptor** %86, align 8
  %91 = load %dimension_descriptor*, %dimension_descriptor** %86, align 8
  %92 = getelementptr inbounds %dimension_descriptor, %dimension_descriptor* %91, i32 0
  %93 = getelementptr %dimension_descriptor, %dimension_descriptor* %92, i32 0, i32 0
  %94 = getelementptr %dimension_descriptor, %dimension_descriptor* %92, i32 0, i32 1
  %95 = getelementptr %dimension_descriptor, %dimension_descriptor* %92, i32 0, i32 2
  %96 = getelementptr %dimension_descriptor, %dimension_descriptor* %92, i32 0, i32 3
  store i32 1, i32* %93, align 4
  store i32 %79, i32* %94, align 4
  store i32 %84, i32* %95, align 4
  %97 = load i32, i32* %95, align 4
  %98 = load i32, i32* %94, align 4
  %99 = sub i32 %97, %98
  %100 = add i32 %99, 1
  store i32 %100, i32* %96, align 4
  %101 = alloca i32, align 4
  %102 = sub i32 %84, %79
  %103 = add i32 %102, 1
  %104 = mul i32 1, %103
  store i32 %104, i32* %101, align 4
  %105 = getelementptr %array, %array* %"~1_bin_op_res", i32 0, i32 0
  %106 = load i32, i32* %101, align 4
  %107 = alloca i32, i32 %106, align 4
  store i32* %107, i32** %105, align 8
  %"~2_bin_op_res" = alloca %array, align 8
  %108 = getelementptr %array, %array* %c, i32 0, i32 2
  %109 = load %dimension_descriptor*, %dimension_descriptor** %108, align 8
  %110 = getelementptr inbounds %dimension_descriptor, %dimension_descriptor* %109, i32 0
  %111 = getelementptr %dimension_descriptor, %dimension_descriptor* %110, i32 0, i32 1
  %112 = load i32, i32* %111, align 4
  %113 = getelementptr %array, %array* %c, i32 0, i32 2
  %114 = load %dimension_descriptor*, %dimension_descriptor** %113, align 8
  %115 = getelementptr inbounds %dimension_descriptor, %dimension_descriptor* %114, i32 0
  %116 = getelementptr %dimension_descriptor, %dimension_descriptor* %115, i32 0, i32 2
  %117 = load i32, i32* %116, align 4
  %118 = getelementptr %array, %array* %"~2_bin_op_res", i32 0, i32 1
  store i32 0, i32* %118, align 4
  %119 = getelementptr %array, %array* %"~2_bin_op_res", i32 0, i32 2
  %120 = alloca i32, align 4
  store i32 1, i32* %120, align 4
  %121 = load i32, i32* %120, align 4
  %122 = alloca %dimension_descriptor, i32 %121, align 8
  %123 = getelementptr %array, %array* %"~2_bin_op_res", i32 0, i32 4
  store i32 1, i32* %123, align 4
  store %dimension_descriptor* %122, %dimension_descriptor** %119, align 8
  %124 = load %dimension_descriptor*, %dimension_descriptor** %119, align 8
  %125 = getelementptr inbounds %dimension_descriptor, %dimension_descriptor* %124, i32 0
  %126 = getelementptr %dimension_descriptor, %dimension_descriptor* %125, i32 0, i32 0
  %127 = getelementptr %dimension_descriptor, %dimension_descriptor* %125, i32 0, i32 1
  %128 = getelementptr %dimension_descriptor, %dimension_descriptor* %125, i32 0, i32 2
  %129 = getelementptr %dimension_descriptor, %dimension_descriptor* %125, i32 0, i32 3
  store i32 1, i32* %126, align 4
  store i32 %112, i32* %127, align 4
  store i32 %117, i32* %128, align 4
  %130 = load i32, i32* %128, align 4
  %131 = load i32, i32* %127, align 4
  %132 = sub i32 %130, %131
  %133 = add i32 %132, 1
  store i32 %133, i32* %129, align 4
  %134 = alloca i32, align 4
  %135 = sub i32 %117, %112
  %136 = add i32 %135, 1
  %137 = mul i32 1, %136
  store i32 %137, i32* %134, align 4
  %138 = getelementptr %array, %array* %"~2_bin_op_res", i32 0, i32 0
  %139 = load i32, i32* %134, align 4
  %140 = alloca i32, i32 %139, align 4
  store i32* %140, i32** %138, align 8
  %"~3_bin_op_res" = alloca %array, align 8
  %141 = getelementptr %array, %array* %a, i32 0, i32 2
  %142 = load %dimension_descriptor*, %dimension_descriptor** %141, align 8
  %143 = getelementptr inbounds %dimension_descriptor, %dimension_descriptor* %142, i32 0
  %144 = getelementptr %dimension_descriptor, %dimension_descriptor* %143, i32 0, i32 1
  %145 = load i32, i32* %144, align 4
  %146 = getelementptr %array, %array* %a, i32 0, i32 2
  %147 = load %dimension_descriptor*, %dimension_descriptor** %146, align 8
  %148 = getelementptr inbounds %dimension_descriptor, %dimension_descriptor* %147, i32 0
  %149 = getelementptr %dimension_descriptor, %dimension_descriptor* %148, i32 0, i32 2
  %150 = load i32, i32* %149, align 4
  %151 = getelementptr %array, %array* %"~3_bin_op_res", i32 0, i32 1
  store i32 0, i32* %151, align 4
  %152 = getelementptr %array, %array* %"~3_bin_op_res", i32 0, i32 2
  %153 = alloca i32, align 4
  store i32 1, i32* %153, align 4
  %154 = load i32, i32* %153, align 4
  %155 = alloca %dimension_descriptor, i32 %154, align 8
  %156 = getelementptr %array, %array* %"~3_bin_op_res", i32 0, i32 4
  store i32 1, i32* %156, align 4
  store %dimension_descriptor* %155, %dimension_descriptor** %152, align 8
  %157 = load %dimension_descriptor*, %dimension_descriptor** %152, align 8
  %158 = getelementptr inbounds %dimension_descriptor, %dimension_descriptor* %157, i32 0
  %159 = getelementptr %dimension_descriptor, %dimension_descriptor* %158, i32 0, i32 0
  %160 = getelementptr %dimension_descriptor, %dimension_descriptor* %158, i32 0, i32 1
  %161 = getelementptr %dimension_descriptor, %dimension_descriptor* %158, i32 0, i32 2
  %162 = getelementptr %dimension_descriptor, %dimension_descriptor* %158, i32 0, i32 3
  store i32 1, i32* %159, align 4
  store i32 %145, i32* %160, align 4
  store i32 %150, i32* %161, align 4
  %163 = load i32, i32* %161, align 4
  %164 = load i32, i32* %160, align 4
  %165 = sub i32 %163, %164
  %166 = add i32 %165, 1
  store i32 %166, i32* %162, align 4
  %167 = alloca i32, align 4
  %168 = sub i32 %150, %145
  %169 = add i32 %168, 1
  %170 = mul i32 1, %169
  store i32 %170, i32* %167, align 4
  %171 = getelementptr %array, %array* %"~3_bin_op_res", i32 0, i32 0
  %172 = load i32, i32* %167, align 4
  %173 = alloca i32, i32 %172, align 4
  store i32* %173, i32** %171, align 8
  %"~4_bin_op_res" = alloca %array, align 8
  %174 = getelementptr %array, %array* %a, i32 0, i32 2
  %175 = load %dimension_descriptor*, %dimension_descriptor** %174, align 8
  %176 = getelementptr inbounds %dimension_descriptor, %dimension_descriptor* %175, i32 0
  %177 = getelementptr %dimension_descriptor, %dimension_descriptor* %176, i32 0, i32 1
  %178 = load i32, i32* %177, align 4
  %179 = getelementptr %array, %array* %a, i32 0, i32 2
  %180 = load %dimension_descriptor*, %dimension_descriptor** %179, align 8
  %181 = getelementptr inbounds %dimension_descriptor, %dimension_descriptor* %180, i32 0
  %182 = getelementptr %dimension_descriptor, %dimension_descriptor* %181, i32 0, i32 2
  %183 = load i32, i32* %182, align 4
  %184 = getelementptr %array, %array* %"~4_bin_op_res", i32 0, i32 1
  store i32 0, i32* %184, align 4
  %185 = getelementptr %array, %array* %"~4_bin_op_res", i32 0, i32 2
  %186 = alloca i32, align 4
  store i32 1, i32* %186, align 4
  %187 = load i32, i32* %186, align 4
  %188 = alloca %dimension_descriptor, i32 %187, align 8
  %189 = getelementptr %array, %array* %"~4_bin_op_res", i32 0, i32 4
  store i32 1, i32* %189, align 4
  store %dimension_descriptor* %188, %dimension_descriptor** %185, align 8
  %190 = load %dimension_descriptor*, %dimension_descriptor** %185, align 8
  %191 = getelementptr inbounds %dimension_descriptor, %dimension_descriptor* %190, i32 0
  %192 = getelementptr %dimension_descriptor, %dimension_descriptor* %191, i32 0, i32 0
  %193 = getelementptr %dimension_descriptor, %dimension_descriptor* %191, i32 0, i32 1
  %194 = getelementptr %dimension_descriptor, %dimension_descriptor* %191, i32 0, i32 2
  %195 = getelementptr %dimension_descriptor, %dimension_descriptor* %191, i32 0, i32 3
  store i32 1, i32* %192, align 4
  store i32 %178, i32* %193, align 4
  store i32 %183, i32* %194, align 4
  %196 = load i32, i32* %194, align 4
  %197 = load i32, i32* %193, align 4
  %198 = sub i32 %196, %197
  %199 = add i32 %198, 1
  store i32 %199, i32* %195, align 4
  %200 = alloca i32, align 4
  %201 = sub i32 %183, %178
  %202 = add i32 %201, 1
  %203 = mul i32 1, %202
  store i32 %203, i32* %200, align 4
  %204 = getelementptr %array, %array* %"~4_bin_op_res", i32 0, i32 0
  %205 = load i32, i32* %200, align 4
  %206 = alloca i32, i32 %205, align 4
  store i32* %206, i32** %204, align 8
  %207 = getelementptr %array, %array* %a, i32 0, i32 2
  %208 = load %dimension_descriptor*, %dimension_descriptor** %207, align 8
  %209 = getelementptr %array, %array* %a, i32 0, i32 4
  %210 = load i32, i32* %209, align 4
  %211 = alloca i32, align 4
  store i32 1, i32* %211, align 4
  %212 = alloca i32, align 4
  store i32 0, i32* %212, align 4
  br label %loop.head

loop.head:                                        ; preds = %loop.body, %.entry
  %213 = load i32, i32* %212, align 4
  %214 = icmp slt i32 %213, %210
  br i1 %214, label %loop.body, label %loop.end

loop.body:                                        ; preds = %loop.head
  %215 = load i32, i32* %212, align 4
  %216 = load i32, i32* %211, align 4
  %217 = getelementptr inbounds %dimension_descriptor, %dimension_descriptor* %208, i32 %215
  %218 = getelementptr %dimension_descriptor, %dimension_descriptor* %217, i32 0, i32 3
  %219 = load i32, i32* %218, align 4
  %220 = mul i32 %216, %219
  store i32 %220, i32* %211, align 4
  %221 = add i32 %215, 1
  store i32 %221, i32* %212, align 4
  br label %loop.head

loop.end:                                         ; preds = %loop.head
  %222 = load i32, i32* %211, align 4
  store i32 %222, i32* %n, align 4
  %223 = load i32, i32* %n, align 4
  %224 = getelementptr %array, %array* %a_2, i32 0, i32 1
  store i32 0, i32* %224, align 4
  %225 = getelementptr %array, %array* %a_2, i32 0, i32 3
  store i1 true, i1* %225, align 1
  %226 = getelementptr %array, %array* %a_2, i32 0, i32 2
  %227 = load %dimension_descriptor*, %dimension_descriptor** %226, align 8
  %228 = getelementptr inbounds %dimension_descriptor, %dimension_descriptor* %227, i32 0
  %229 = getelementptr %dimension_descriptor, %dimension_descriptor* %228, i32 0, i32 0
  %230 = getelementptr %dimension_descriptor, %dimension_descriptor* %228, i32 0, i32 1
  %231 = getelementptr %dimension_descriptor, %dimension_descriptor* %228, i32 0, i32 2
  %232 = getelementptr %dimension_descriptor, %dimension_descriptor* %228, i32 0, i32 3
  store i32 1, i32* %229, align 4
  store i32 1, i32* %230, align 4
  store i32 %223, i32* %231, align 4
  %233 = load i32, i32* %231, align 4
  %234 = load i32, i32* %230, align 4
  %235 = sub i32 %233, %234
  %236 = add i32 %235, 1
  %237 = mul i32 1, %236
  store i32 %236, i32* %232, align 4
  %238 = getelementptr %array, %array* %a_2, i32 0, i32 0
  %239 = alloca i32, align 4
  %240 = mul i32 %237, 4
  store i32 %240, i32* %239, align 4
  %241 = load i32, i32* %239, align 4
  %242 = call i8* (i32, ...) @_lfortran_malloc(i32 %241)
  %243 = bitcast i8* %242 to i32*
  store i32* %243, i32** %238, align 8
  %244 = load i32, i32* %n, align 4
  %245 = getelementptr %array, %array* %b_2, i32 0, i32 1
  store i32 0, i32* %245, align 4
  %246 = getelementptr %array, %array* %b_2, i32 0, i32 3
  store i1 true, i1* %246, align 1
  %247 = getelementptr %array, %array* %b_2, i32 0, i32 2
  %248 = load %dimension_descriptor*, %dimension_descriptor** %247, align 8
  %249 = getelementptr inbounds %dimension_descriptor, %dimension_descriptor* %248, i32 0
  %250 = getelementptr %dimension_descriptor, %dimension_descriptor* %249, i32 0, i32 0
  %251 = getelementptr %dimension_descriptor, %dimension_descriptor* %249, i32 0, i32 1
  %252 = getelementptr %dimension_descriptor, %dimension_descriptor* %249, i32 0, i32 2
  %253 = getelementptr %dimension_descriptor, %dimension_descriptor* %249, i32 0, i32 3
  store i32 1, i32* %250, align 4
  store i32 1, i32* %251, align 4
  store i32 %244, i32* %252, align 4
  %254 = load i32, i32* %252, align 4
  %255 = load i32, i32* %251, align 4
  %256 = sub i32 %254, %255
  %257 = add i32 %256, 1
  %258 = mul i32 1, %257
  store i32 %257, i32* %253, align 4
  %259 = getelementptr %array, %array* %b_2, i32 0, i32 0
  %260 = alloca i32, align 4
  %261 = mul i32 %258, 4
  store i32 %261, i32* %260, align 4
  %262 = load i32, i32* %260, align 4
  %263 = call i8* (i32, ...) @_lfortran_malloc(i32 %262)
  %264 = bitcast i8* %263 to i32*
  store i32* %264, i32** %259, align 8
  %265 = load i32, i32* %n, align 4
  %266 = getelementptr %array, %array* %c_2, i32 0, i32 1
  store i32 0, i32* %266, align 4
  %267 = getelementptr %array, %array* %c_2, i32 0, i32 3
  store i1 true, i1* %267, align 1
  %268 = getelementptr %array, %array* %c_2, i32 0, i32 2
  %269 = load %dimension_descriptor*, %dimension_descriptor** %268, align 8
  %270 = getelementptr inbounds %dimension_descriptor, %dimension_descriptor* %269, i32 0
  %271 = getelementptr %dimension_descriptor, %dimension_descriptor* %270, i32 0, i32 0
  %272 = getelementptr %dimension_descriptor, %dimension_descriptor* %270, i32 0, i32 1
  %273 = getelementptr %dimension_descriptor, %dimension_descriptor* %270, i32 0, i32 2
  %274 = getelementptr %dimension_descriptor, %dimension_descriptor* %270, i32 0, i32 3
  store i32 1, i32* %271, align 4
  store i32 1, i32* %272, align 4
  store i32 %265, i32* %273, align 4
  %275 = load i32, i32* %273, align 4
  %276 = load i32, i32* %272, align 4
  %277 = sub i32 %275, %276
  %278 = add i32 %277, 1
  %279 = mul i32 1, %278
  store i32 %278, i32* %274, align 4
  %280 = getelementptr %array, %array* %c_2, i32 0, i32 0
  %281 = alloca i32, align 4
  %282 = mul i32 %279, 4
  store i32 %282, i32* %281, align 4
  %283 = load i32, i32* %281, align 4
  %284 = call i8* (i32, ...) @_lfortran_malloc(i32 %283)
  %285 = bitcast i8* %284 to i32*
  store i32* %285, i32** %280, align 8
  %286 = load i32, i32* %n, align 4
  %287 = getelementptr %array, %array* %ab, i32 0, i32 1
  store i32 0, i32* %287, align 4
  %288 = getelementptr %array, %array* %ab, i32 0, i32 3
  store i1 true, i1* %288, align 1
  %289 = getelementptr %array, %array* %ab, i32 0, i32 2
  %290 = load %dimension_descriptor*, %dimension_descriptor** %289, align 8
  %291 = getelementptr inbounds %dimension_descriptor, %dimension_descriptor* %290, i32 0
  %292 = getelementptr %dimension_descriptor, %dimension_descriptor* %291, i32 0, i32 0
  %293 = getelementptr %dimension_descriptor, %dimension_descriptor* %291, i32 0, i32 1
  %294 = getelementptr %dimension_descriptor, %dimension_descriptor* %291, i32 0, i32 2
  %295 = getelementptr %dimension_descriptor, %dimension_descriptor* %291, i32 0, i32 3
  store i32 1, i32* %292, align 4
  store i32 1, i32* %293, align 4
  store i32 %286, i32* %294, align 4
  %296 = load i32, i32* %294, align 4
  %297 = load i32, i32* %293, align 4
  %298 = sub i32 %296, %297
  %299 = add i32 %298, 1
  %300 = mul i32 1, %299
  store i32 %299, i32* %295, align 4
  %301 = getelementptr %array, %array* %ab, i32 0, i32 0
  %302 = alloca i32, align 4
  %303 = mul i32 %300, 4
  store i32 %303, i32* %302, align 4
  %304 = load i32, i32* %302, align 4
  %305 = call i8* (i32, ...) @_lfortran_malloc(i32 %304)
  %306 = bitcast i8* %305 to i32*
  store i32* %306, i32** %301, align 8
  %307 = load i32, i32* %n, align 4
  %308 = getelementptr %array, %array* %bc, i32 0, i32 1
  store i32 0, i32* %308, align 4
  %309 = getelementptr %array, %array* %bc, i32 0, i32 3
  store i1 true, i1* %309, align 1
  %310 = getelementptr %array, %array* %bc, i32 0, i32 2
  %311 = load %dimension_descriptor*, %dimension_descriptor** %310, align 8
  %312 = getelementptr inbounds %dimension_descriptor, %dimension_descriptor* %311, i32 0
  %313 = getelementptr %dimension_descriptor, %dimension_descriptor* %312, i32 0, i32 0
  %314 = getelementptr %dimension_descriptor, %dimension_descriptor* %312, i32 0, i32 1
  %315 = getelementptr %dimension_descriptor, %dimension_descriptor* %312, i32 0, i32 2
  %316 = getelementptr %dimension_descriptor, %dimension_descriptor* %312, i32 0, i32 3
  store i32 1, i32* %313, align 4
  store i32 1, i32* %314, align 4
  store i32 %307, i32* %315, align 4
  %317 = load i32, i32* %315, align 4
  %318 = load i32, i32* %314, align 4
  %319 = sub i32 %317, %318
  %320 = add i32 %319, 1
  %321 = mul i32 1, %320
  store i32 %320, i32* %316, align 4
  %322 = getelementptr %array, %array* %bc, i32 0, i32 0
  %323 = alloca i32, align 4
  %324 = mul i32 %321, 4
  store i32 %324, i32* %323, align 4
  %325 = load i32, i32* %323, align 4
  %326 = call i8* (i32, ...) @_lfortran_malloc(i32 %325)
  %327 = bitcast i8* %326 to i32*
  store i32* %327, i32** %322, align 8
  %328 = load i32, i32* %n, align 4
  %329 = getelementptr %array, %array* %ca, i32 0, i32 1
  store i32 0, i32* %329, align 4
  %330 = getelementptr %array, %array* %ca, i32 0, i32 3
  store i1 true, i1* %330, align 1
  %331 = getelementptr %array, %array* %ca, i32 0, i32 2
  %332 = load %dimension_descriptor*, %dimension_descriptor** %331, align 8
  %333 = getelementptr inbounds %dimension_descriptor, %dimension_descriptor* %332, i32 0
  %334 = getelementptr %dimension_descriptor, %dimension_descriptor* %333, i32 0, i32 0
  %335 = getelementptr %dimension_descriptor, %dimension_descriptor* %333, i32 0, i32 1
  %336 = getelementptr %dimension_descriptor, %dimension_descriptor* %333, i32 0, i32 2
  %337 = getelementptr %dimension_descriptor, %dimension_descriptor* %333, i32 0, i32 3
  store i32 1, i32* %334, align 4
  store i32 1, i32* %335, align 4
  store i32 %328, i32* %336, align 4
  %338 = load i32, i32* %336, align 4
  %339 = load i32, i32* %335, align 4
  %340 = sub i32 %338, %339
  %341 = add i32 %340, 1
  %342 = mul i32 1, %341
  store i32 %341, i32* %337, align 4
  %343 = getelementptr %array, %array* %ca, i32 0, i32 0
  %344 = alloca i32, align 4
  %345 = mul i32 %342, 4
  store i32 %345, i32* %344, align 4
  %346 = load i32, i32* %344, align 4
  %347 = call i8* (i32, ...) @_lfortran_malloc(i32 %346)
  %348 = bitcast i8* %347 to i32*
  store i32* %348, i32** %343, align 8
  %349 = load i32, i32* %n, align 4
  %350 = getelementptr %array, %array* %abc, i32 0, i32 1
  store i32 0, i32* %350, align 4
  %351 = getelementptr %array, %array* %abc, i32 0, i32 3
  store i1 true, i1* %351, align 1
  %352 = getelementptr %array, %array* %abc, i32 0, i32 2
  %353 = load %dimension_descriptor*, %dimension_descriptor** %352, align 8
  %354 = getelementptr inbounds %dimension_descriptor, %dimension_descriptor* %353, i32 0
  %355 = getelementptr %dimension_descriptor, %dimension_descriptor* %354, i32 0, i32 0
  %356 = getelementptr %dimension_descriptor, %dimension_descriptor* %354, i32 0, i32 1
  %357 = getelementptr %dimension_descriptor, %dimension_descriptor* %354, i32 0, i32 2
  %358 = getelementptr %dimension_descriptor, %dimension_descriptor* %354, i32 0, i32 3
  store i32 1, i32* %355, align 4
  store i32 1, i32* %356, align 4
  store i32 %349, i32* %357, align 4
  %359 = load i32, i32* %357, align 4
  %360 = load i32, i32* %356, align 4
  %361 = sub i32 %359, %360
  %362 = add i32 %361, 1
  %363 = mul i32 1, %362
  store i32 %362, i32* %358, align 4
  %364 = getelementptr %array, %array* %abc, i32 0, i32 0
  %365 = alloca i32, align 4
  %366 = mul i32 %363, 4
  store i32 %366, i32* %365, align 4
  %367 = load i32, i32* %365, align 4
  %368 = call i8* (i32, ...) @_lfortran_malloc(i32 %367)
  %369 = bitcast i8* %368 to i32*
  store i32* %369, i32** %364, align 8
  store i32 0, i32* %status, align 4
  store i32 1, i32* %"1_v", align 4
  %370 = getelementptr %array, %array* %a_2, i32 0, i32 2
  %371 = load %dimension_descriptor*, %dimension_descriptor** %370, align 8
  %372 = getelementptr inbounds %dimension_descriptor, %dimension_descriptor* %371, i32 0
  %373 = getelementptr %dimension_descriptor, %dimension_descriptor* %372, i32 0, i32 1
  %374 = load i32, i32* %373, align 4
  %375 = sub i32 %374, 1
  store i32 %375, i32* %"1_t", align 4
  br label %loop.head1

loop.head1:                                       ; preds = %loop.body2, %loop.end
  %376 = load i32, i32* %"1_t", align 4
  %377 = add i32 %376, 1
  %378 = getelementptr %array, %array* %a_2, i32 0, i32 2
  %379 = load %dimension_descriptor*, %dimension_descriptor** %378, align 8
  %380 = getelementptr inbounds %dimension_descriptor, %dimension_descriptor* %379, i32 0
  %381 = getelementptr %dimension_descriptor, %dimension_descriptor* %380, i32 0, i32 2
  %382 = load i32, i32* %381, align 4
  %383 = icmp sle i32 %377, %382
  br i1 %383, label %loop.body2, label %loop.end3

loop.body2:                                       ; preds = %loop.head1
  %384 = load i32, i32* %"1_t", align 4
  %385 = add i32 %384, 1
  store i32 %385, i32* %"1_t", align 4
  %386 = load i32, i32* %"1_t", align 4
  %387 = getelementptr %array, %array* %a_2, i32 0, i32 2
  %388 = load %dimension_descriptor*, %dimension_descriptor** %387, align 8
  %389 = getelementptr inbounds %dimension_descriptor, %dimension_descriptor* %388, i32 0
  %390 = getelementptr %dimension_descriptor, %dimension_descriptor* %389, i32 0, i32 1
  %391 = load i32, i32* %390, align 4
  %392 = sub i32 %386, %391
  %393 = mul i32 1, %392
  %394 = add i32 0, %393
  %395 = getelementptr %dimension_descriptor, %dimension_descriptor* %389, i32 0, i32 3
  %396 = load i32, i32* %395, align 4
  %397 = mul i32 1, %396
  %398 = getelementptr %array, %array* %a_2, i32 0, i32 0
  %399 = load i32*, i32** %398, align 8
  %400 = getelementptr inbounds i32, i32* %399, i32 %394
  %401 = load i32, i32* %"1_v", align 4
  %402 = getelementptr %array, %array* %a, i32 0, i32 2
  %403 = load %dimension_descriptor*, %dimension_descriptor** %402, align 8
  %404 = getelementptr inbounds %dimension_descriptor, %dimension_descriptor* %403, i32 0
  %405 = getelementptr %dimension_descriptor, %dimension_descriptor* %404, i32 0, i32 1
  %406 = load i32, i32* %405, align 4
  %407 = sub i32 %401, %406
  %408 = mul i32 1, %407
  %409 = add i32 0, %408
  %410 = getelementptr %dimension_descriptor, %dimension_descriptor* %404, i32 0, i32 3
  %411 = load i32, i32* %410, align 4
  %412 = mul i32 1, %411
  %413 = getelementptr %array, %array* %a, i32 0, i32 0
  %414 = load i32*, i32** %413, align 8
  %415 = getelementptr inbounds i32, i32* %414, i32 %409
  %416 = load i32, i32* %415, align 4
  %417 = load i32, i32* %"1_v", align 4
  %418 = getelementptr %array, %array* %a, i32 0, i32 2
  %419 = load %dimension_descriptor*, %dimension_descriptor** %418, align 8
  %420 = getelementptr inbounds %dimension_descriptor, %dimension_descriptor* %419, i32 0
  %421 = getelementptr %dimension_descriptor, %dimension_descriptor* %420, i32 0, i32 1
  %422 = load i32, i32* %421, align 4
  %423 = sub i32 %417, %422
  %424 = mul i32 1, %423
  %425 = add i32 0, %424
  %426 = getelementptr %dimension_descriptor, %dimension_descriptor* %420, i32 0, i32 3
  %427 = load i32, i32* %426, align 4
  %428 = mul i32 1, %427
  %429 = getelementptr %array, %array* %a, i32 0, i32 0
  %430 = load i32*, i32** %429, align 8
  %431 = getelementptr inbounds i32, i32* %430, i32 %425
  %432 = load i32, i32* %431, align 4
  %433 = mul i32 %416, %432
  store i32 %433, i32* %400, align 4
  %434 = load i32, i32* %"1_v", align 4
  %435 = add i32 %434, 1
  store i32 %435, i32* %"1_v", align 4
  br label %loop.head1

loop.end3:                                        ; preds = %loop.head1
  store i32 1, i32* %"1_v", align 4
  %436 = getelementptr %array, %array* %b_2, i32 0, i32 2
  %437 = load %dimension_descriptor*, %dimension_descriptor** %436, align 8
  %438 = getelementptr inbounds %dimension_descriptor, %dimension_descriptor* %437, i32 0
  %439 = getelementptr %dimension_descriptor, %dimension_descriptor* %438, i32 0, i32 1
  %440 = load i32, i32* %439, align 4
  %441 = sub i32 %440, 1
  store i32 %441, i32* %"1_t", align 4
  br label %loop.head4

loop.head4:                                       ; preds = %loop.body5, %loop.end3
  %442 = load i32, i32* %"1_t", align 4
  %443 = add i32 %442, 1
  %444 = getelementptr %array, %array* %b_2, i32 0, i32 2
  %445 = load %dimension_descriptor*, %dimension_descriptor** %444, align 8
  %446 = getelementptr inbounds %dimension_descriptor, %dimension_descriptor* %445, i32 0
  %447 = getelementptr %dimension_descriptor, %dimension_descriptor* %446, i32 0, i32 2
  %448 = load i32, i32* %447, align 4
  %449 = icmp sle i32 %443, %448
  br i1 %449, label %loop.body5, label %loop.end6

loop.body5:                                       ; preds = %loop.head4
  %450 = load i32, i32* %"1_t", align 4
  %451 = add i32 %450, 1
  store i32 %451, i32* %"1_t", align 4
  %452 = load i32, i32* %"1_t", align 4
  %453 = getelementptr %array, %array* %b_2, i32 0, i32 2
  %454 = load %dimension_descriptor*, %dimension_descriptor** %453, align 8
  %455 = getelementptr inbounds %dimension_descriptor, %dimension_descriptor* %454, i32 0
  %456 = getelementptr %dimension_descriptor, %dimension_descriptor* %455, i32 0, i32 1
  %457 = load i32, i32* %456, align 4
  %458 = sub i32 %452, %457
  %459 = mul i32 1, %458
  %460 = add i32 0, %459
  %461 = getelementptr %dimension_descriptor, %dimension_descriptor* %455, i32 0, i32 3
  %462 = load i32, i32* %461, align 4
  %463 = mul i32 1, %462
  %464 = getelementptr %array, %array* %b_2, i32 0, i32 0
  %465 = load i32*, i32** %464, align 8
  %466 = getelementptr inbounds i32, i32* %465, i32 %460
  %467 = load i32, i32* %"1_v", align 4
  %468 = getelementptr %array, %array* %b, i32 0, i32 2
  %469 = load %dimension_descriptor*, %dimension_descriptor** %468, align 8
  %470 = getelementptr inbounds %dimension_descriptor, %dimension_descriptor* %469, i32 0
  %471 = getelementptr %dimension_descriptor, %dimension_descriptor* %470, i32 0, i32 1
  %472 = load i32, i32* %471, align 4
  %473 = sub i32 %467, %472
  %474 = mul i32 1, %473
  %475 = add i32 0, %474
  %476 = getelementptr %dimension_descriptor, %dimension_descriptor* %470, i32 0, i32 3
  %477 = load i32, i32* %476, align 4
  %478 = mul i32 1, %477
  %479 = getelementptr %array, %array* %b, i32 0, i32 0
  %480 = load i32*, i32** %479, align 8
  %481 = getelementptr inbounds i32, i32* %480, i32 %475
  %482 = load i32, i32* %481, align 4
  %483 = load i32, i32* %"1_v", align 4
  %484 = getelementptr %array, %array* %b, i32 0, i32 2
  %485 = load %dimension_descriptor*, %dimension_descriptor** %484, align 8
  %486 = getelementptr inbounds %dimension_descriptor, %dimension_descriptor* %485, i32 0
  %487 = getelementptr %dimension_descriptor, %dimension_descriptor* %486, i32 0, i32 1
  %488 = load i32, i32* %487, align 4
  %489 = sub i32 %483, %488
  %490 = mul i32 1, %489
  %491 = add i32 0, %490
  %492 = getelementptr %dimension_descriptor, %dimension_descriptor* %486, i32 0, i32 3
  %493 = load i32, i32* %492, align 4
  %494 = mul i32 1, %493
  %495 = getelementptr %array, %array* %b, i32 0, i32 0
  %496 = load i32*, i32** %495, align 8
  %497 = getelementptr inbounds i32, i32* %496, i32 %491
  %498 = load i32, i32* %497, align 4
  %499 = mul i32 %482, %498
  store i32 %499, i32* %466, align 4
  %500 = load i32, i32* %"1_v", align 4
  %501 = add i32 %500, 1
  store i32 %501, i32* %"1_v", align 4
  br label %loop.head4

loop.end6:                                        ; preds = %loop.head4
  store i32 1, i32* %"1_v", align 4
  %502 = getelementptr %array, %array* %c_2, i32 0, i32 2
  %503 = load %dimension_descriptor*, %dimension_descriptor** %502, align 8
  %504 = getelementptr inbounds %dimension_descriptor, %dimension_descriptor* %503, i32 0
  %505 = getelementptr %dimension_descriptor, %dimension_descriptor* %504, i32 0, i32 1
  %506 = load i32, i32* %505, align 4
  %507 = sub i32 %506, 1
  store i32 %507, i32* %"1_t", align 4
  br label %loop.head7

loop.head7:                                       ; preds = %loop.body8, %loop.end6
  %508 = load i32, i32* %"1_t", align 4
  %509 = add i32 %508, 1
  %510 = getelementptr %array, %array* %c_2, i32 0, i32 2
  %511 = load %dimension_descriptor*, %dimension_descriptor** %510, align 8
  %512 = getelementptr inbounds %dimension_descriptor, %dimension_descriptor* %511, i32 0
  %513 = getelementptr %dimension_descriptor, %dimension_descriptor* %512, i32 0, i32 2
  %514 = load i32, i32* %513, align 4
  %515 = icmp sle i32 %509, %514
  br i1 %515, label %loop.body8, label %loop.end9

loop.body8:                                       ; preds = %loop.head7
  %516 = load i32, i32* %"1_t", align 4
  %517 = add i32 %516, 1
  store i32 %517, i32* %"1_t", align 4
  %518 = load i32, i32* %"1_t", align 4
  %519 = getelementptr %array, %array* %c_2, i32 0, i32 2
  %520 = load %dimension_descriptor*, %dimension_descriptor** %519, align 8
  %521 = getelementptr inbounds %dimension_descriptor, %dimension_descriptor* %520, i32 0
  %522 = getelementptr %dimension_descriptor, %dimension_descriptor* %521, i32 0, i32 1
  %523 = load i32, i32* %522, align 4
  %524 = sub i32 %518, %523
  %525 = mul i32 1, %524
  %526 = add i32 0, %525
  %527 = getelementptr %dimension_descriptor, %dimension_descriptor* %521, i32 0, i32 3
  %528 = load i32, i32* %527, align 4
  %529 = mul i32 1, %528
  %530 = getelementptr %array, %array* %c_2, i32 0, i32 0
  %531 = load i32*, i32** %530, align 8
  %532 = getelementptr inbounds i32, i32* %531, i32 %526
  %533 = load i32, i32* %"1_v", align 4
  %534 = getelementptr %array, %array* %c, i32 0, i32 2
  %535 = load %dimension_descriptor*, %dimension_descriptor** %534, align 8
  %536 = getelementptr inbounds %dimension_descriptor, %dimension_descriptor* %535, i32 0
  %537 = getelementptr %dimension_descriptor, %dimension_descriptor* %536, i32 0, i32 1
  %538 = load i32, i32* %537, align 4
  %539 = sub i32 %533, %538
  %540 = mul i32 1, %539
  %541 = add i32 0, %540
  %542 = getelementptr %dimension_descriptor, %dimension_descriptor* %536, i32 0, i32 3
  %543 = load i32, i32* %542, align 4
  %544 = mul i32 1, %543
  %545 = getelementptr %array, %array* %c, i32 0, i32 0
  %546 = load i32*, i32** %545, align 8
  %547 = getelementptr inbounds i32, i32* %546, i32 %541
  %548 = load i32, i32* %547, align 4
  %549 = load i32, i32* %"1_v", align 4
  %550 = getelementptr %array, %array* %c, i32 0, i32 2
  %551 = load %dimension_descriptor*, %dimension_descriptor** %550, align 8
  %552 = getelementptr inbounds %dimension_descriptor, %dimension_descriptor* %551, i32 0
  %553 = getelementptr %dimension_descriptor, %dimension_descriptor* %552, i32 0, i32 1
  %554 = load i32, i32* %553, align 4
  %555 = sub i32 %549, %554
  %556 = mul i32 1, %555
  %557 = add i32 0, %556
  %558 = getelementptr %dimension_descriptor, %dimension_descriptor* %552, i32 0, i32 3
  %559 = load i32, i32* %558, align 4
  %560 = mul i32 1, %559
  %561 = getelementptr %array, %array* %c, i32 0, i32 0
  %562 = load i32*, i32** %561, align 8
  %563 = getelementptr inbounds i32, i32* %562, i32 %557
  %564 = load i32, i32* %563, align 4
  %565 = mul i32 %548, %564
  store i32 %565, i32* %532, align 4
  %566 = load i32, i32* %"1_v", align 4
  %567 = add i32 %566, 1
  store i32 %567, i32* %"1_v", align 4
  br label %loop.head7

loop.end9:                                        ; preds = %loop.head7
  store i32 1, i32* %"1_v", align 4
  %568 = getelementptr %array, %array* %"~0_bin_op_res", i32 0, i32 2
  %569 = load %dimension_descriptor*, %dimension_descriptor** %568, align 8
  %570 = getelementptr inbounds %dimension_descriptor, %dimension_descriptor* %569, i32 0
  %571 = getelementptr %dimension_descriptor, %dimension_descriptor* %570, i32 0, i32 1
  %572 = load i32, i32* %571, align 4
  %573 = sub i32 %572, 1
  store i32 %573, i32* %"1_t", align 4
  br label %loop.head10

loop.head10:                                      ; preds = %loop.body11, %loop.end9
  %574 = load i32, i32* %"1_t", align 4
  %575 = add i32 %574, 1
  %576 = getelementptr %array, %array* %"~0_bin_op_res", i32 0, i32 2
  %577 = load %dimension_descriptor*, %dimension_descriptor** %576, align 8
  %578 = getelementptr inbounds %dimension_descriptor, %dimension_descriptor* %577, i32 0
  %579 = getelementptr %dimension_descriptor, %dimension_descriptor* %578, i32 0, i32 2
  %580 = load i32, i32* %579, align 4
  %581 = icmp sle i32 %575, %580
  br i1 %581, label %loop.body11, label %loop.end12

loop.body11:                                      ; preds = %loop.head10
  %582 = load i32, i32* %"1_t", align 4
  %583 = add i32 %582, 1
  store i32 %583, i32* %"1_t", align 4
  %584 = load i32, i32* %"1_t", align 4
  %585 = getelementptr %array, %array* %"~0_bin_op_res", i32 0, i32 2
  %586 = load %dimension_descriptor*, %dimension_descriptor** %585, align 8
  %587 = getelementptr inbounds %dimension_descriptor, %dimension_descriptor* %586, i32 0
  %588 = getelementptr %dimension_descriptor, %dimension_descriptor* %587, i32 0, i32 1
  %589 = load i32, i32* %588, align 4
  %590 = sub i32 %584, %589
  %591 = mul i32 1, %590
  %592 = add i32 0, %591
  %593 = getelementptr %dimension_descriptor, %dimension_descriptor* %587, i32 0, i32 3
  %594 = load i32, i32* %593, align 4
  %595 = mul i32 1, %594
  %596 = getelementptr %array, %array* %"~0_bin_op_res", i32 0, i32 0
  %597 = load i32*, i32** %596, align 8
  %598 = getelementptr inbounds i32, i32* %597, i32 %592
  %599 = load i32, i32* %"1_v", align 4
  %600 = getelementptr %array, %array* %a, i32 0, i32 2
  %601 = load %dimension_descriptor*, %dimension_descriptor** %600, align 8
  %602 = getelementptr inbounds %dimension_descriptor, %dimension_descriptor* %601, i32 0
  %603 = getelementptr %dimension_descriptor, %dimension_descriptor* %602, i32 0, i32 1
  %604 = load i32, i32* %603, align 4
  %605 = sub i32 %599, %604
  %606 = mul i32 1, %605
  %607 = add i32 0, %606
  %608 = getelementptr %dimension_descriptor, %dimension_descriptor* %602, i32 0, i32 3
  %609 = load i32, i32* %608, align 4
  %610 = mul i32 1, %609
  %611 = getelementptr %array, %array* %a, i32 0, i32 0
  %612 = load i32*, i32** %611, align 8
  %613 = getelementptr inbounds i32, i32* %612, i32 %607
  %614 = load i32, i32* %613, align 4
  %615 = mul i32 %614, 2
  store i32 %615, i32* %598, align 4
  %616 = load i32, i32* %"1_v", align 4
  %617 = add i32 %616, 1
  store i32 %617, i32* %"1_v", align 4
  br label %loop.head10

loop.end12:                                       ; preds = %loop.head10
  store i32 1, i32* %"1_v", align 4
  %618 = getelementptr %array, %array* %ab, i32 0, i32 2
  %619 = load %dimension_descriptor*, %dimension_descriptor** %618, align 8
  %620 = getelementptr inbounds %dimension_descriptor, %dimension_descriptor* %619, i32 0
  %621 = getelementptr %dimension_descriptor, %dimension_descriptor* %620, i32 0, i32 1
  %622 = load i32, i32* %621, align 4
  %623 = sub i32 %622, 1
  store i32 %623, i32* %"1_t", align 4
  br label %loop.head13

loop.head13:                                      ; preds = %loop.body14, %loop.end12
  %624 = load i32, i32* %"1_t", align 4
  %625 = add i32 %624, 1
  %626 = getelementptr %array, %array* %ab, i32 0, i32 2
  %627 = load %dimension_descriptor*, %dimension_descriptor** %626, align 8
  %628 = getelementptr inbounds %dimension_descriptor, %dimension_descriptor* %627, i32 0
  %629 = getelementptr %dimension_descriptor, %dimension_descriptor* %628, i32 0, i32 2
  %630 = load i32, i32* %629, align 4
  %631 = icmp sle i32 %625, %630
  br i1 %631, label %loop.body14, label %loop.end15

loop.body14:                                      ; preds = %loop.head13
  %632 = load i32, i32* %"1_t", align 4
  %633 = add i32 %632, 1
  store i32 %633, i32* %"1_t", align 4
  %634 = load i32, i32* %"1_t", align 4
  %635 = getelementptr %array, %array* %ab, i32 0, i32 2
  %636 = load %dimension_descriptor*, %dimension_descriptor** %635, align 8
  %637 = getelementptr inbounds %dimension_descriptor, %dimension_descriptor* %636, i32 0
  %638 = getelementptr %dimension_descriptor, %dimension_descriptor* %637, i32 0, i32 1
  %639 = load i32, i32* %638, align 4
  %640 = sub i32 %634, %639
  %641 = mul i32 1, %640
  %642 = add i32 0, %641
  %643 = getelementptr %dimension_descriptor, %dimension_descriptor* %637, i32 0, i32 3
  %644 = load i32, i32* %643, align 4
  %645 = mul i32 1, %644
  %646 = getelementptr %array, %array* %ab, i32 0, i32 0
  %647 = load i32*, i32** %646, align 8
  %648 = getelementptr inbounds i32, i32* %647, i32 %642
  %649 = load i32, i32* %"1_v", align 4
  %650 = getelementptr %array, %array* %"~0_bin_op_res", i32 0, i32 2
  %651 = load %dimension_descriptor*, %dimension_descriptor** %650, align 8
  %652 = getelementptr inbounds %dimension_descriptor, %dimension_descriptor* %651, i32 0
  %653 = getelementptr %dimension_descriptor, %dimension_descriptor* %652, i32 0, i32 1
  %654 = load i32, i32* %653, align 4
  %655 = sub i32 %649, %654
  %656 = mul i32 1, %655
  %657 = add i32 0, %656
  %658 = getelementptr %dimension_descriptor, %dimension_descriptor* %652, i32 0, i32 3
  %659 = load i32, i32* %658, align 4
  %660 = mul i32 1, %659
  %661 = getelementptr %array, %array* %"~0_bin_op_res", i32 0, i32 0
  %662 = load i32*, i32** %661, align 8
  %663 = getelementptr inbounds i32, i32* %662, i32 %657
  %664 = load i32, i32* %663, align 4
  %665 = load i32, i32* %"1_v", align 4
  %666 = getelementptr %array, %array* %b, i32 0, i32 2
  %667 = load %dimension_descriptor*, %dimension_descriptor** %666, align 8
  %668 = getelementptr inbounds %dimension_descriptor, %dimension_descriptor* %667, i32 0
  %669 = getelementptr %dimension_descriptor, %dimension_descriptor* %668, i32 0, i32 1
  %670 = load i32, i32* %669, align 4
  %671 = sub i32 %665, %670
  %672 = mul i32 1, %671
  %673 = add i32 0, %672
  %674 = getelementptr %dimension_descriptor, %dimension_descriptor* %668, i32 0, i32 3
  %675 = load i32, i32* %674, align 4
  %676 = mul i32 1, %675
  %677 = getelementptr %array, %array* %b, i32 0, i32 0
  %678 = load i32*, i32** %677, align 8
  %679 = getelementptr inbounds i32, i32* %678, i32 %673
  %680 = load i32, i32* %679, align 4
  %681 = mul i32 %664, %680
  store i32 %681, i32* %648, align 4
  %682 = load i32, i32* %"1_v", align 4
  %683 = add i32 %682, 1
  store i32 %683, i32* %"1_v", align 4
  br label %loop.head13

loop.end15:                                       ; preds = %loop.head13
  store i32 1, i32* %"1_v", align 4
  %684 = getelementptr %array, %array* %"~1_bin_op_res", i32 0, i32 2
  %685 = load %dimension_descriptor*, %dimension_descriptor** %684, align 8
  %686 = getelementptr inbounds %dimension_descriptor, %dimension_descriptor* %685, i32 0
  %687 = getelementptr %dimension_descriptor, %dimension_descriptor* %686, i32 0, i32 1
  %688 = load i32, i32* %687, align 4
  %689 = sub i32 %688, 1
  store i32 %689, i32* %"1_t", align 4
  br label %loop.head16

loop.head16:                                      ; preds = %loop.body17, %loop.end15
  %690 = load i32, i32* %"1_t", align 4
  %691 = add i32 %690, 1
  %692 = getelementptr %array, %array* %"~1_bin_op_res", i32 0, i32 2
  %693 = load %dimension_descriptor*, %dimension_descriptor** %692, align 8
  %694 = getelementptr inbounds %dimension_descriptor, %dimension_descriptor* %693, i32 0
  %695 = getelementptr %dimension_descriptor, %dimension_descriptor* %694, i32 0, i32 2
  %696 = load i32, i32* %695, align 4
  %697 = icmp sle i32 %691, %696
  br i1 %697, label %loop.body17, label %loop.end18

loop.body17:                                      ; preds = %loop.head16
  %698 = load i32, i32* %"1_t", align 4
  %699 = add i32 %698, 1
  store i32 %699, i32* %"1_t", align 4
  %700 = load i32, i32* %"1_t", align 4
  %701 = getelementptr %array, %array* %"~1_bin_op_res", i32 0, i32 2
  %702 = load %dimension_descriptor*, %dimension_descriptor** %701, align 8
  %703 = getelementptr inbounds %dimension_descriptor, %dimension_descriptor* %702, i32 0
  %704 = getelementptr %dimension_descriptor, %dimension_descriptor* %703, i32 0, i32 1
  %705 = load i32, i32* %704, align 4
  %706 = sub i32 %700, %705
  %707 = mul i32 1, %706
  %708 = add i32 0, %707
  %709 = getelementptr %dimension_descriptor, %dimension_descriptor* %703, i32 0, i32 3
  %710 = load i32, i32* %709, align 4
  %711 = mul i32 1, %710
  %712 = getelementptr %array, %array* %"~1_bin_op_res", i32 0, i32 0
  %713 = load i32*, i32** %712, align 8
  %714 = getelementptr inbounds i32, i32* %713, i32 %708
  %715 = load i32, i32* %"1_v", align 4
  %716 = getelementptr %array, %array* %b, i32 0, i32 2
  %717 = load %dimension_descriptor*, %dimension_descriptor** %716, align 8
  %718 = getelementptr inbounds %dimension_descriptor, %dimension_descriptor* %717, i32 0
  %719 = getelementptr %dimension_descriptor, %dimension_descriptor* %718, i32 0, i32 1
  %720 = load i32, i32* %719, align 4
  %721 = sub i32 %715, %720
  %722 = mul i32 1, %721
  %723 = add i32 0, %722
  %724 = getelementptr %dimension_descriptor, %dimension_descriptor* %718, i32 0, i32 3
  %725 = load i32, i32* %724, align 4
  %726 = mul i32 1, %725
  %727 = getelementptr %array, %array* %b, i32 0, i32 0
  %728 = load i32*, i32** %727, align 8
  %729 = getelementptr inbounds i32, i32* %728, i32 %723
  %730 = load i32, i32* %729, align 4
  %731 = mul i32 %730, 2
  store i32 %731, i32* %714, align 4
  %732 = load i32, i32* %"1_v", align 4
  %733 = add i32 %732, 1
  store i32 %733, i32* %"1_v", align 4
  br label %loop.head16

loop.end18:                                       ; preds = %loop.head16
  store i32 1, i32* %"1_v", align 4
  %734 = getelementptr %array, %array* %bc, i32 0, i32 2
  %735 = load %dimension_descriptor*, %dimension_descriptor** %734, align 8
  %736 = getelementptr inbounds %dimension_descriptor, %dimension_descriptor* %735, i32 0
  %737 = getelementptr %dimension_descriptor, %dimension_descriptor* %736, i32 0, i32 1
  %738 = load i32, i32* %737, align 4
  %739 = sub i32 %738, 1
  store i32 %739, i32* %"1_t", align 4
  br label %loop.head19

loop.head19:                                      ; preds = %loop.body20, %loop.end18
  %740 = load i32, i32* %"1_t", align 4
  %741 = add i32 %740, 1
  %742 = getelementptr %array, %array* %bc, i32 0, i32 2
  %743 = load %dimension_descriptor*, %dimension_descriptor** %742, align 8
  %744 = getelementptr inbounds %dimension_descriptor, %dimension_descriptor* %743, i32 0
  %745 = getelementptr %dimension_descriptor, %dimension_descriptor* %744, i32 0, i32 2
  %746 = load i32, i32* %745, align 4
  %747 = icmp sle i32 %741, %746
  br i1 %747, label %loop.body20, label %loop.end21

loop.body20:                                      ; preds = %loop.head19
  %748 = load i32, i32* %"1_t", align 4
  %749 = add i32 %748, 1
  store i32 %749, i32* %"1_t", align 4
  %750 = load i32, i32* %"1_t", align 4
  %751 = getelementptr %array, %array* %bc, i32 0, i32 2
  %752 = load %dimension_descriptor*, %dimension_descriptor** %751, align 8
  %753 = getelementptr inbounds %dimension_descriptor, %dimension_descriptor* %752, i32 0
  %754 = getelementptr %dimension_descriptor, %dimension_descriptor* %753, i32 0, i32 1
  %755 = load i32, i32* %754, align 4
  %756 = sub i32 %750, %755
  %757 = mul i32 1, %756
  %758 = add i32 0, %757
  %759 = getelementptr %dimension_descriptor, %dimension_descriptor* %753, i32 0, i32 3
  %760 = load i32, i32* %759, align 4
  %761 = mul i32 1, %760
  %762 = getelementptr %array, %array* %bc, i32 0, i32 0
  %763 = load i32*, i32** %762, align 8
  %764 = getelementptr inbounds i32, i32* %763, i32 %758
  %765 = load i32, i32* %"1_v", align 4
  %766 = getelementptr %array, %array* %"~1_bin_op_res", i32 0, i32 2
  %767 = load %dimension_descriptor*, %dimension_descriptor** %766, align 8
  %768 = getelementptr inbounds %dimension_descriptor, %dimension_descriptor* %767, i32 0
  %769 = getelementptr %dimension_descriptor, %dimension_descriptor* %768, i32 0, i32 1
  %770 = load i32, i32* %769, align 4
  %771 = sub i32 %765, %770
  %772 = mul i32 1, %771
  %773 = add i32 0, %772
  %774 = getelementptr %dimension_descriptor, %dimension_descriptor* %768, i32 0, i32 3
  %775 = load i32, i32* %774, align 4
  %776 = mul i32 1, %775
  %777 = getelementptr %array, %array* %"~1_bin_op_res", i32 0, i32 0
  %778 = load i32*, i32** %777, align 8
  %779 = getelementptr inbounds i32, i32* %778, i32 %773
  %780 = load i32, i32* %779, align 4
  %781 = load i32, i32* %"1_v", align 4
  %782 = getelementptr %array, %array* %c, i32 0, i32 2
  %783 = load %dimension_descriptor*, %dimension_descriptor** %782, align 8
  %784 = getelementptr inbounds %dimension_descriptor, %dimension_descriptor* %783, i32 0
  %785 = getelementptr %dimension_descriptor, %dimension_descriptor* %784, i32 0, i32 1
  %786 = load i32, i32* %785, align 4
  %787 = sub i32 %781, %786
  %788 = mul i32 1, %787
  %789 = add i32 0, %788
  %790 = getelementptr %dimension_descriptor, %dimension_descriptor* %784, i32 0, i32 3
  %791 = load i32, i32* %790, align 4
  %792 = mul i32 1, %791
  %793 = getelementptr %array, %array* %c, i32 0, i32 0
  %794 = load i32*, i32** %793, align 8
  %795 = getelementptr inbounds i32, i32* %794, i32 %789
  %796 = load i32, i32* %795, align 4
  %797 = mul i32 %780, %796
  store i32 %797, i32* %764, align 4
  %798 = load i32, i32* %"1_v", align 4
  %799 = add i32 %798, 1
  store i32 %799, i32* %"1_v", align 4
  br label %loop.head19

loop.end21:                                       ; preds = %loop.head19
  store i32 1, i32* %"1_v", align 4
  %800 = getelementptr %array, %array* %"~2_bin_op_res", i32 0, i32 2
  %801 = load %dimension_descriptor*, %dimension_descriptor** %800, align 8
  %802 = getelementptr inbounds %dimension_descriptor, %dimension_descriptor* %801, i32 0
  %803 = getelementptr %dimension_descriptor, %dimension_descriptor* %802, i32 0, i32 1
  %804 = load i32, i32* %803, align 4
  %805 = sub i32 %804, 1
  store i32 %805, i32* %"1_t", align 4
  br label %loop.head22

loop.head22:                                      ; preds = %loop.body23, %loop.end21
  %806 = load i32, i32* %"1_t", align 4
  %807 = add i32 %806, 1
  %808 = getelementptr %array, %array* %"~2_bin_op_res", i32 0, i32 2
  %809 = load %dimension_descriptor*, %dimension_descriptor** %808, align 8
  %810 = getelementptr inbounds %dimension_descriptor, %dimension_descriptor* %809, i32 0
  %811 = getelementptr %dimension_descriptor, %dimension_descriptor* %810, i32 0, i32 2
  %812 = load i32, i32* %811, align 4
  %813 = icmp sle i32 %807, %812
  br i1 %813, label %loop.body23, label %loop.end24

loop.body23:                                      ; preds = %loop.head22
  %814 = load i32, i32* %"1_t", align 4
  %815 = add i32 %814, 1
  store i32 %815, i32* %"1_t", align 4
  %816 = load i32, i32* %"1_t", align 4
  %817 = getelementptr %array, %array* %"~2_bin_op_res", i32 0, i32 2
  %818 = load %dimension_descriptor*, %dimension_descriptor** %817, align 8
  %819 = getelementptr inbounds %dimension_descriptor, %dimension_descriptor* %818, i32 0
  %820 = getelementptr %dimension_descriptor, %dimension_descriptor* %819, i32 0, i32 1
  %821 = load i32, i32* %820, align 4
  %822 = sub i32 %816, %821
  %823 = mul i32 1, %822
  %824 = add i32 0, %823
  %825 = getelementptr %dimension_descriptor, %dimension_descriptor* %819, i32 0, i32 3
  %826 = load i32, i32* %825, align 4
  %827 = mul i32 1, %826
  %828 = getelementptr %array, %array* %"~2_bin_op_res", i32 0, i32 0
  %829 = load i32*, i32** %828, align 8
  %830 = getelementptr inbounds i32, i32* %829, i32 %824
  %831 = load i32, i32* %"1_v", align 4
  %832 = getelementptr %array, %array* %c, i32 0, i32 2
  %833 = load %dimension_descriptor*, %dimension_descriptor** %832, align 8
  %834 = getelementptr inbounds %dimension_descriptor, %dimension_descriptor* %833, i32 0
  %835 = getelementptr %dimension_descriptor, %dimension_descriptor* %834, i32 0, i32 1
  %836 = load i32, i32* %835, align 4
  %837 = sub i32 %831, %836
  %838 = mul i32 1, %837
  %839 = add i32 0, %838
  %840 = getelementptr %dimension_descriptor, %dimension_descriptor* %834, i32 0, i32 3
  %841 = load i32, i32* %840, align 4
  %842 = mul i32 1, %841
  %843 = getelementptr %array, %array* %c, i32 0, i32 0
  %844 = load i32*, i32** %843, align 8
  %845 = getelementptr inbounds i32, i32* %844, i32 %839
  %846 = load i32, i32* %845, align 4
  %847 = mul i32 %846, 2
  store i32 %847, i32* %830, align 4
  %848 = load i32, i32* %"1_v", align 4
  %849 = add i32 %848, 1
  store i32 %849, i32* %"1_v", align 4
  br label %loop.head22

loop.end24:                                       ; preds = %loop.head22
  store i32 1, i32* %"1_v", align 4
  %850 = getelementptr %array, %array* %ca, i32 0, i32 2
  %851 = load %dimension_descriptor*, %dimension_descriptor** %850, align 8
  %852 = getelementptr inbounds %dimension_descriptor, %dimension_descriptor* %851, i32 0
  %853 = getelementptr %dimension_descriptor, %dimension_descriptor* %852, i32 0, i32 1
  %854 = load i32, i32* %853, align 4
  %855 = sub i32 %854, 1
  store i32 %855, i32* %"1_t", align 4
  br label %loop.head25

loop.head25:                                      ; preds = %loop.body26, %loop.end24
  %856 = load i32, i32* %"1_t", align 4
  %857 = add i32 %856, 1
  %858 = getelementptr %array, %array* %ca, i32 0, i32 2
  %859 = load %dimension_descriptor*, %dimension_descriptor** %858, align 8
  %860 = getelementptr inbounds %dimension_descriptor, %dimension_descriptor* %859, i32 0
  %861 = getelementptr %dimension_descriptor, %dimension_descriptor* %860, i32 0, i32 2
  %862 = load i32, i32* %861, align 4
  %863 = icmp sle i32 %857, %862
  br i1 %863, label %loop.body26, label %loop.end27

loop.body26:                                      ; preds = %loop.head25
  %864 = load i32, i32* %"1_t", align 4
  %865 = add i32 %864, 1
  store i32 %865, i32* %"1_t", align 4
  %866 = load i32, i32* %"1_t", align 4
  %867 = getelementptr %array, %array* %ca, i32 0, i32 2
  %868 = load %dimension_descriptor*, %dimension_descriptor** %867, align 8
  %869 = getelementptr inbounds %dimension_descriptor, %dimension_descriptor* %868, i32 0
  %870 = getelementptr %dimension_descriptor, %dimension_descriptor* %869, i32 0, i32 1
  %871 = load i32, i32* %870, align 4
  %872 = sub i32 %866, %871
  %873 = mul i32 1, %872
  %874 = add i32 0, %873
  %875 = getelementptr %dimension_descriptor, %dimension_descriptor* %869, i32 0, i32 3
  %876 = load i32, i32* %875, align 4
  %877 = mul i32 1, %876
  %878 = getelementptr %array, %array* %ca, i32 0, i32 0
  %879 = load i32*, i32** %878, align 8
  %880 = getelementptr inbounds i32, i32* %879, i32 %874
  %881 = load i32, i32* %"1_v", align 4
  %882 = getelementptr %array, %array* %"~2_bin_op_res", i32 0, i32 2
  %883 = load %dimension_descriptor*, %dimension_descriptor** %882, align 8
  %884 = getelementptr inbounds %dimension_descriptor, %dimension_descriptor* %883, i32 0
  %885 = getelementptr %dimension_descriptor, %dimension_descriptor* %884, i32 0, i32 1
  %886 = load i32, i32* %885, align 4
  %887 = sub i32 %881, %886
  %888 = mul i32 1, %887
  %889 = add i32 0, %888
  %890 = getelementptr %dimension_descriptor, %dimension_descriptor* %884, i32 0, i32 3
  %891 = load i32, i32* %890, align 4
  %892 = mul i32 1, %891
  %893 = getelementptr %array, %array* %"~2_bin_op_res", i32 0, i32 0
  %894 = load i32*, i32** %893, align 8
  %895 = getelementptr inbounds i32, i32* %894, i32 %889
  %896 = load i32, i32* %895, align 4
  %897 = load i32, i32* %"1_v", align 4
  %898 = getelementptr %array, %array* %a, i32 0, i32 2
  %899 = load %dimension_descriptor*, %dimension_descriptor** %898, align 8
  %900 = getelementptr inbounds %dimension_descriptor, %dimension_descriptor* %899, i32 0
  %901 = getelementptr %dimension_descriptor, %dimension_descriptor* %900, i32 0, i32 1
  %902 = load i32, i32* %901, align 4
  %903 = sub i32 %897, %902
  %904 = mul i32 1, %903
  %905 = add i32 0, %904
  %906 = getelementptr %dimension_descriptor, %dimension_descriptor* %900, i32 0, i32 3
  %907 = load i32, i32* %906, align 4
  %908 = mul i32 1, %907
  %909 = getelementptr %array, %array* %a, i32 0, i32 0
  %910 = load i32*, i32** %909, align 8
  %911 = getelementptr inbounds i32, i32* %910, i32 %905
  %912 = load i32, i32* %911, align 4
  %913 = mul i32 %896, %912
  store i32 %913, i32* %880, align 4
  %914 = load i32, i32* %"1_v", align 4
  %915 = add i32 %914, 1
  store i32 %915, i32* %"1_v", align 4
  br label %loop.head25

loop.end27:                                       ; preds = %loop.head25
  store i32 1, i32* %"1_v", align 4
  %916 = getelementptr %array, %array* %"~3_bin_op_res", i32 0, i32 2
  %917 = load %dimension_descriptor*, %dimension_descriptor** %916, align 8
  %918 = getelementptr inbounds %dimension_descriptor, %dimension_descriptor* %917, i32 0
  %919 = getelementptr %dimension_descriptor, %dimension_descriptor* %918, i32 0, i32 1
  %920 = load i32, i32* %919, align 4
  %921 = sub i32 %920, 1
  store i32 %921, i32* %"1_t", align 4
  br label %loop.head28

loop.head28:                                      ; preds = %loop.body29, %loop.end27
  %922 = load i32, i32* %"1_t", align 4
  %923 = add i32 %922, 1
  %924 = getelementptr %array, %array* %"~3_bin_op_res", i32 0, i32 2
  %925 = load %dimension_descriptor*, %dimension_descriptor** %924, align 8
  %926 = getelementptr inbounds %dimension_descriptor, %dimension_descriptor* %925, i32 0
  %927 = getelementptr %dimension_descriptor, %dimension_descriptor* %926, i32 0, i32 2
  %928 = load i32, i32* %927, align 4
  %929 = icmp sle i32 %923, %928
  br i1 %929, label %loop.body29, label %loop.end30

loop.body29:                                      ; preds = %loop.head28
  %930 = load i32, i32* %"1_t", align 4
  %931 = add i32 %930, 1
  store i32 %931, i32* %"1_t", align 4
  %932 = load i32, i32* %"1_t", align 4
  %933 = getelementptr %array, %array* %"~3_bin_op_res", i32 0, i32 2
  %934 = load %dimension_descriptor*, %dimension_descriptor** %933, align 8
  %935 = getelementptr inbounds %dimension_descriptor, %dimension_descriptor* %934, i32 0
  %936 = getelementptr %dimension_descriptor, %dimension_descriptor* %935, i32 0, i32 1
  %937 = load i32, i32* %936, align 4
  %938 = sub i32 %932, %937
  %939 = mul i32 1, %938
  %940 = add i32 0, %939
  %941 = getelementptr %dimension_descriptor, %dimension_descriptor* %935, i32 0, i32 3
  %942 = load i32, i32* %941, align 4
  %943 = mul i32 1, %942
  %944 = getelementptr %array, %array* %"~3_bin_op_res", i32 0, i32 0
  %945 = load i32*, i32** %944, align 8
  %946 = getelementptr inbounds i32, i32* %945, i32 %940
  %947 = load i32, i32* %"1_v", align 4
  %948 = getelementptr %array, %array* %a, i32 0, i32 2
  %949 = load %dimension_descriptor*, %dimension_descriptor** %948, align 8
  %950 = getelementptr inbounds %dimension_descriptor, %dimension_descriptor* %949, i32 0
  %951 = getelementptr %dimension_descriptor, %dimension_descriptor* %950, i32 0, i32 1
  %952 = load i32, i32* %951, align 4
  %953 = sub i32 %947, %952
  %954 = mul i32 1, %953
  %955 = add i32 0, %954
  %956 = getelementptr %dimension_descriptor, %dimension_descriptor* %950, i32 0, i32 3
  %957 = load i32, i32* %956, align 4
  %958 = mul i32 1, %957
  %959 = getelementptr %array, %array* %a, i32 0, i32 0
  %960 = load i32*, i32** %959, align 8
  %961 = getelementptr inbounds i32, i32* %960, i32 %955
  %962 = load i32, i32* %961, align 4
  %963 = mul i32 %962, 2
  store i32 %963, i32* %946, align 4
  %964 = load i32, i32* %"1_v", align 4
  %965 = add i32 %964, 1
  store i32 %965, i32* %"1_v", align 4
  br label %loop.head28

loop.end30:                                       ; preds = %loop.head28
  store i32 1, i32* %"1_v", align 4
  %966 = getelementptr %array, %array* %"~4_bin_op_res", i32 0, i32 2
  %967 = load %dimension_descriptor*, %dimension_descriptor** %966, align 8
  %968 = getelementptr inbounds %dimension_descriptor, %dimension_descriptor* %967, i32 0
  %969 = getelementptr %dimension_descriptor, %dimension_descriptor* %968, i32 0, i32 1
  %970 = load i32, i32* %969, align 4
  %971 = sub i32 %970, 1
  store i32 %971, i32* %"1_t", align 4
  br label %loop.head31

loop.head31:                                      ; preds = %loop.body32, %loop.end30
  %972 = load i32, i32* %"1_t", align 4
  %973 = add i32 %972, 1
  %974 = getelementptr %array, %array* %"~4_bin_op_res", i32 0, i32 2
  %975 = load %dimension_descriptor*, %dimension_descriptor** %974, align 8
  %976 = getelementptr inbounds %dimension_descriptor, %dimension_descriptor* %975, i32 0
  %977 = getelementptr %dimension_descriptor, %dimension_descriptor* %976, i32 0, i32 2
  %978 = load i32, i32* %977, align 4
  %979 = icmp sle i32 %973, %978
  br i1 %979, label %loop.body32, label %loop.end33

loop.body32:                                      ; preds = %loop.head31
  %980 = load i32, i32* %"1_t", align 4
  %981 = add i32 %980, 1
  store i32 %981, i32* %"1_t", align 4
  %982 = load i32, i32* %"1_t", align 4
  %983 = getelementptr %array, %array* %"~4_bin_op_res", i32 0, i32 2
  %984 = load %dimension_descriptor*, %dimension_descriptor** %983, align 8
  %985 = getelementptr inbounds %dimension_descriptor, %dimension_descriptor* %984, i32 0
  %986 = getelementptr %dimension_descriptor, %dimension_descriptor* %985, i32 0, i32 1
  %987 = load i32, i32* %986, align 4
  %988 = sub i32 %982, %987
  %989 = mul i32 1, %988
  %990 = add i32 0, %989
  %991 = getelementptr %dimension_descriptor, %dimension_descriptor* %985, i32 0, i32 3
  %992 = load i32, i32* %991, align 4
  %993 = mul i32 1, %992
  %994 = getelementptr %array, %array* %"~4_bin_op_res", i32 0, i32 0
  %995 = load i32*, i32** %994, align 8
  %996 = getelementptr inbounds i32, i32* %995, i32 %990
  %997 = load i32, i32* %"1_v", align 4
  %998 = getelementptr %array, %array* %"~3_bin_op_res", i32 0, i32 2
  %999 = load %dimension_descriptor*, %dimension_descriptor** %998, align 8
  %1000 = getelementptr inbounds %dimension_descriptor, %dimension_descriptor* %999, i32 0
  %1001 = getelementptr %dimension_descriptor, %dimension_descriptor* %1000, i32 0, i32 1
  %1002 = load i32, i32* %1001, align 4
  %1003 = sub i32 %997, %1002
  %1004 = mul i32 1, %1003
  %1005 = add i32 0, %1004
  %1006 = getelementptr %dimension_descriptor, %dimension_descriptor* %1000, i32 0, i32 3
  %1007 = load i32, i32* %1006, align 4
  %1008 = mul i32 1, %1007
  %1009 = getelementptr %array, %array* %"~3_bin_op_res", i32 0, i32 0
  %1010 = load i32*, i32** %1009, align 8
  %1011 = getelementptr inbounds i32, i32* %1010, i32 %1005
  %1012 = load i32, i32* %1011, align 4
  %1013 = load i32, i32* %"1_v", align 4
  %1014 = getelementptr %array, %array* %b, i32 0, i32 2
  %1015 = load %dimension_descriptor*, %dimension_descriptor** %1014, align 8
  %1016 = getelementptr inbounds %dimension_descriptor, %dimension_descriptor* %1015, i32 0
  %1017 = getelementptr %dimension_descriptor, %dimension_descriptor* %1016, i32 0, i32 1
  %1018 = load i32, i32* %1017, align 4
  %1019 = sub i32 %1013, %1018
  %1020 = mul i32 1, %1019
  %1021 = add i32 0, %1020
  %1022 = getelementptr %dimension_descriptor, %dimension_descriptor* %1016, i32 0, i32 3
  %1023 = load i32, i32* %1022, align 4
  %1024 = mul i32 1, %1023
  %1025 = getelementptr %array, %array* %b, i32 0, i32 0
  %1026 = load i32*, i32** %1025, align 8
  %1027 = getelementptr inbounds i32, i32* %1026, i32 %1021
  %1028 = load i32, i32* %1027, align 4
  %1029 = mul i32 %1012, %1028
  store i32 %1029, i32* %996, align 4
  %1030 = load i32, i32* %"1_v", align 4
  %1031 = add i32 %1030, 1
  store i32 %1031, i32* %"1_v", align 4
  br label %loop.head31

loop.end33:                                       ; preds = %loop.head31
  store i32 1, i32* %"1_v", align 4
  %1032 = getelementptr %array, %array* %abc, i32 0, i32 2
  %1033 = load %dimension_descriptor*, %dimension_descriptor** %1032, align 8
  %1034 = getelementptr inbounds %dimension_descriptor, %dimension_descriptor* %1033, i32 0
  %1035 = getelementptr %dimension_descriptor, %dimension_descriptor* %1034, i32 0, i32 1
  %1036 = load i32, i32* %1035, align 4
  %1037 = sub i32 %1036, 1
  store i32 %1037, i32* %"1_t", align 4
  br label %loop.head34

loop.head34:                                      ; preds = %loop.body35, %loop.end33
  %1038 = load i32, i32* %"1_t", align 4
  %1039 = add i32 %1038, 1
  %1040 = getelementptr %array, %array* %abc, i32 0, i32 2
  %1041 = load %dimension_descriptor*, %dimension_descriptor** %1040, align 8
  %1042 = getelementptr inbounds %dimension_descriptor, %dimension_descriptor* %1041, i32 0
  %1043 = getelementptr %dimension_descriptor, %dimension_descriptor* %1042, i32 0, i32 2
  %1044 = load i32, i32* %1043, align 4
  %1045 = icmp sle i32 %1039, %1044
  br i1 %1045, label %loop.body35, label %loop.end36

loop.body35:                                      ; preds = %loop.head34
  %1046 = load i32, i32* %"1_t", align 4
  %1047 = add i32 %1046, 1
  store i32 %1047, i32* %"1_t", align 4
  %1048 = load i32, i32* %"1_t", align 4
  %1049 = getelementptr %array, %array* %abc, i32 0, i32 2
  %1050 = load %dimension_descriptor*, %dimension_descriptor** %1049, align 8
  %1051 = getelementptr inbounds %dimension_descriptor, %dimension_descriptor* %1050, i32 0
  %1052 = getelementptr %dimension_descriptor, %dimension_descriptor* %1051, i32 0, i32 1
  %1053 = load i32, i32* %1052, align 4
  %1054 = sub i32 %1048, %1053
  %1055 = mul i32 1, %1054
  %1056 = add i32 0, %1055
  %1057 = getelementptr %dimension_descriptor, %dimension_descriptor* %1051, i32 0, i32 3
  %1058 = load i32, i32* %1057, align 4
  %1059 = mul i32 1, %1058
  %1060 = getelementptr %array, %array* %abc, i32 0, i32 0
  %1061 = load i32*, i32** %1060, align 8
  %1062 = getelementptr inbounds i32, i32* %1061, i32 %1056
  %1063 = load i32, i32* %"1_v", align 4
  %1064 = getelementptr %array, %array* %"~4_bin_op_res", i32 0, i32 2
  %1065 = load %dimension_descriptor*, %dimension_descriptor** %1064, align 8
  %1066 = getelementptr inbounds %dimension_descriptor, %dimension_descriptor* %1065, i32 0
  %1067 = getelementptr %dimension_descriptor, %dimension_descriptor* %1066, i32 0, i32 1
  %1068 = load i32, i32* %1067, align 4
  %1069 = sub i32 %1063, %1068
  %1070 = mul i32 1, %1069
  %1071 = add i32 0, %1070
  %1072 = getelementptr %dimension_descriptor, %dimension_descriptor* %1066, i32 0, i32 3
  %1073 = load i32, i32* %1072, align 4
  %1074 = mul i32 1, %1073
  %1075 = getelementptr %array, %array* %"~4_bin_op_res", i32 0, i32 0
  %1076 = load i32*, i32** %1075, align 8
  %1077 = getelementptr inbounds i32, i32* %1076, i32 %1071
  %1078 = load i32, i32* %1077, align 4
  %1079 = load i32, i32* %"1_v", align 4
  %1080 = getelementptr %array, %array* %c, i32 0, i32 2
  %1081 = load %dimension_descriptor*, %dimension_descriptor** %1080, align 8
  %1082 = getelementptr inbounds %dimension_descriptor, %dimension_descriptor* %1081, i32 0
  %1083 = getelementptr %dimension_descriptor, %dimension_descriptor* %1082, i32 0, i32 1
  %1084 = load i32, i32* %1083, align 4
  %1085 = sub i32 %1079, %1084
  %1086 = mul i32 1, %1085
  %1087 = add i32 0, %1086
  %1088 = getelementptr %dimension_descriptor, %dimension_descriptor* %1082, i32 0, i32 3
  %1089 = load i32, i32* %1088, align 4
  %1090 = mul i32 1, %1089
  %1091 = getelementptr %array, %array* %c, i32 0, i32 0
  %1092 = load i32*, i32** %1091, align 8
  %1093 = getelementptr inbounds i32, i32* %1092, i32 %1087
  %1094 = load i32, i32* %1093, align 4
  %1095 = mul i32 %1078, %1094
  store i32 %1095, i32* %1062, align 4
  %1096 = load i32, i32* %"1_v", align 4
  %1097 = add i32 %1096, 1
  store i32 %1097, i32* %"1_v", align 4
  br label %loop.head34

loop.end36:                                       ; preds = %loop.head34
  store i32 1, i32* %status, align 4
  %1098 = getelementptr %array, %array* %a_2, i32 0, i32 3
  %1099 = load i1, i1* %1098, align 1
  br i1 %1099, label %then, label %else

then:                                             ; preds = %loop.end36
  %1100 = getelementptr %array, %array* %a_2, i32 0, i32 0
  %1101 = load i32*, i32** %1100, align 8
  %1102 = alloca i8*, align 8
  %1103 = bitcast i32* %1101 to i8*
  store i8* %1103, i8** %1102, align 8
  %1104 = load i8*, i8** %1102, align 8
  call void (i8*, ...) @_lfortran_free(i8* %1104)
  %1105 = getelementptr %array, %array* %a_2, i32 0, i32 3
  store i1 false, i1* %1105, align 1
  br label %ifcont

else:                                             ; preds = %loop.end36
  br label %ifcont

ifcont:                                           ; preds = %else, %then
  %1106 = getelementptr %array, %array* %ab, i32 0, i32 3
  %1107 = load i1, i1* %1106, align 1
  br i1 %1107, label %then37, label %else38

then37:                                           ; preds = %ifcont
  %1108 = getelementptr %array, %array* %ab, i32 0, i32 0
  %1109 = load i32*, i32** %1108, align 8
  %1110 = alloca i8*, align 8
  %1111 = bitcast i32* %1109 to i8*
  store i8* %1111, i8** %1110, align 8
  %1112 = load i8*, i8** %1110, align 8
  call void (i8*, ...) @_lfortran_free(i8* %1112)
  %1113 = getelementptr %array, %array* %ab, i32 0, i32 3
  store i1 false, i1* %1113, align 1
  br label %ifcont39

else38:                                           ; preds = %ifcont
  br label %ifcont39

ifcont39:                                         ; preds = %else38, %then37
  %1114 = getelementptr %array, %array* %abc, i32 0, i32 3
  %1115 = load i1, i1* %1114, align 1
  br i1 %1115, label %then40, label %else41

then40:                                           ; preds = %ifcont39
  %1116 = getelementptr %array, %array* %abc, i32 0, i32 0
  %1117 = load i32*, i32** %1116, align 8
  %1118 = alloca i8*, align 8
  %1119 = bitcast i32* %1117 to i8*
  store i8* %1119, i8** %1118, align 8
  %1120 = load i8*, i8** %1118, align 8
  call void (i8*, ...) @_lfortran_free(i8* %1120)
  %1121 = getelementptr %array, %array* %abc, i32 0, i32 3
  store i1 false, i1* %1121, align 1
  br label %ifcont42

else41:                                           ; preds = %ifcont39
  br label %ifcont42

ifcont42:                                         ; preds = %else41, %then40
  %1122 = getelementptr %array, %array* %b_2, i32 0, i32 3
  %1123 = load i1, i1* %1122, align 1
  br i1 %1123, label %then43, label %else44

then43:                                           ; preds = %ifcont42
  %1124 = getelementptr %array, %array* %b_2, i32 0, i32 0
  %1125 = load i32*, i32** %1124, align 8
  %1126 = alloca i8*, align 8
  %1127 = bitcast i32* %1125 to i8*
  store i8* %1127, i8** %1126, align 8
  %1128 = load i8*, i8** %1126, align 8
  call void (i8*, ...) @_lfortran_free(i8* %1128)
  %1129 = getelementptr %array, %array* %b_2, i32 0, i32 3
  store i1 false, i1* %1129, align 1
  br label %ifcont45

else44:                                           ; preds = %ifcont42
  br label %ifcont45

ifcont45:                                         ; preds = %else44, %then43
  %1130 = getelementptr %array, %array* %bc, i32 0, i32 3
  %1131 = load i1, i1* %1130, align 1
  br i1 %1131, label %then46, label %else47

then46:                                           ; preds = %ifcont45
  %1132 = getelementptr %array, %array* %bc, i32 0, i32 0
  %1133 = load i32*, i32** %1132, align 8
  %1134 = alloca i8*, align 8
  %1135 = bitcast i32* %1133 to i8*
  store i8* %1135, i8** %1134, align 8
  %1136 = load i8*, i8** %1134, align 8
  call void (i8*, ...) @_lfortran_free(i8* %1136)
  %1137 = getelementptr %array, %array* %bc, i32 0, i32 3
  store i1 false, i1* %1137, align 1
  br label %ifcont48

else47:                                           ; preds = %ifcont45
  br label %ifcont48

ifcont48:                                         ; preds = %else47, %then46
  %1138 = getelementptr %array, %array* %c_2, i32 0, i32 3
  %1139 = load i1, i1* %1138, align 1
  br i1 %1139, label %then49, label %else50

then49:                                           ; preds = %ifcont48
  %1140 = getelementptr %array, %array* %c_2, i32 0, i32 0
  %1141 = load i32*, i32** %1140, align 8
  %1142 = alloca i8*, align 8
  %1143 = bitcast i32* %1141 to i8*
  store i8* %1143, i8** %1142, align 8
  %1144 = load i8*, i8** %1142, align 8
  call void (i8*, ...) @_lfortran_free(i8* %1144)
  %1145 = getelementptr %array, %array* %c_2, i32 0, i32 3
  store i1 false, i1* %1145, align 1
  br label %ifcont51

else50:                                           ; preds = %ifcont48
  br label %ifcont51

ifcont51:                                         ; preds = %else50, %then49
  %1146 = getelementptr %array, %array* %ca, i32 0, i32 3
  %1147 = load i1, i1* %1146, align 1
  br i1 %1147, label %then52, label %else53

then52:                                           ; preds = %ifcont51
  %1148 = getelementptr %array, %array* %ca, i32 0, i32 0
  %1149 = load i32*, i32** %1148, align 8
  %1150 = alloca i8*, align 8
  %1151 = bitcast i32* %1149 to i8*
  store i8* %1151, i8** %1150, align 8
  %1152 = load i8*, i8** %1150, align 8
  call void (i8*, ...) @_lfortran_free(i8* %1152)
  %1153 = getelementptr %array, %array* %ca, i32 0, i32 3
  store i1 false, i1* %1153, align 1
  br label %ifcont54

else53:                                           ; preds = %ifcont51
  br label %ifcont54

ifcont54:                                         ; preds = %else53, %then52
  br label %return

return:                                           ; preds = %ifcont54
  %1154 = load i32, i32* %status, align 4
  ret i32 %1154
}

declare i8* @_lfortran_malloc(i32, ...)

declare void @_lfortran_free(i8*, ...)

define i32 @main() {
.entry:
  %"1_k" = alloca i32, align 4
  %a = alloca %array, align 8
  %0 = getelementptr %array, %array* %a, i32 0, i32 2
  %1 = alloca i32, align 4
  store i32 1, i32* %1, align 4
  %2 = load i32, i32* %1, align 4
  %3 = alloca %dimension_descriptor, i32 %2, align 8
  store %dimension_descriptor* %3, %dimension_descriptor** %0, align 8
  %4 = getelementptr %array, %array* %a, i32 0, i32 4
  store i32 1, i32* %4, align 4
  %5 = getelementptr %array, %array* %a, i32 0, i32 3
  store i1 false, i1* %5, align 1
  %b = alloca %array, align 8
  %6 = getelementptr %array, %array* %b, i32 0, i32 2
  %7 = alloca i32, align 4
  store i32 1, i32* %7, align 4
  %8 = load i32, i32* %7, align 4
  %9 = alloca %dimension_descriptor, i32 %8, align 8
  store %dimension_descriptor* %9, %dimension_descriptor** %6, align 8
  %10 = getelementptr %array, %array* %b, i32 0, i32 4
  store i32 1, i32* %10, align 4
  %11 = getelementptr %array, %array* %b, i32 0, i32 3
  store i1 false, i1* %11, align 1
  %c = alloca %array, align 8
  %12 = getelementptr %array, %array* %c, i32 0, i32 2
  %13 = alloca i32, align 4
  store i32 1, i32* %13, align 4
  %14 = load i32, i32* %13, align 4
  %15 = alloca %dimension_descriptor, i32 %14, align 8
  store %dimension_descriptor* %15, %dimension_descriptor** %12, align 8
  %16 = getelementptr %array, %array* %c, i32 0, i32 4
  store i32 1, i32* %16, align 4
  %17 = getelementptr %array, %array* %c, i32 0, i32 3
  store i1 false, i1* %17, align 1
  %ierr = alloca i32, align 4
  %isource = alloca i32, align 4
  %n = alloca i32, align 4
  store i32 10, i32* %n, align 4
  %18 = load i32, i32* %n, align 4
  %19 = getelementptr %array, %array* %a, i32 0, i32 1
  store i32 0, i32* %19, align 4
  %20 = getelementptr %array, %array* %a, i32 0, i32 3
  store i1 true, i1* %20, align 1
  %21 = getelementptr %array, %array* %a, i32 0, i32 2
  %22 = load %dimension_descriptor*, %dimension_descriptor** %21, align 8
  %23 = getelementptr inbounds %dimension_descriptor, %dimension_descriptor* %22, i32 0
  %24 = getelementptr %dimension_descriptor, %dimension_descriptor* %23, i32 0, i32 0
  %25 = getelementptr %dimension_descriptor, %dimension_descriptor* %23, i32 0, i32 1
  %26 = getelementptr %dimension_descriptor, %dimension_descriptor* %23, i32 0, i32 2
  %27 = getelementptr %dimension_descriptor, %dimension_descriptor* %23, i32 0, i32 3
  store i32 1, i32* %24, align 4
  store i32 1, i32* %25, align 4
  store i32 %18, i32* %26, align 4
  %28 = load i32, i32* %26, align 4
  %29 = load i32, i32* %25, align 4
  %30 = sub i32 %28, %29
  %31 = add i32 %30, 1
  %32 = mul i32 1, %31
  store i32 %31, i32* %27, align 4
  %33 = getelementptr %array, %array* %a, i32 0, i32 0
  %34 = alloca i32, align 4
  %35 = mul i32 %32, 4
  store i32 %35, i32* %34, align 4
  %36 = load i32, i32* %34, align 4
  %37 = call i8* (i32, ...) @_lfortran_malloc(i32 %36)
  %38 = bitcast i8* %37 to i32*
  store i32* %38, i32** %33, align 8
  %39 = load i32, i32* %n, align 4
  %40 = getelementptr %array, %array* %b, i32 0, i32 1
  store i32 0, i32* %40, align 4
  %41 = getelementptr %array, %array* %b, i32 0, i32 3
  store i1 true, i1* %41, align 1
  %42 = getelementptr %array, %array* %b, i32 0, i32 2
  %43 = load %dimension_descriptor*, %dimension_descriptor** %42, align 8
  %44 = getelementptr inbounds %dimension_descriptor, %dimension_descriptor* %43, i32 0
  %45 = getelementptr %dimension_descriptor, %dimension_descriptor* %44, i32 0, i32 0
  %46 = getelementptr %dimension_descriptor, %dimension_descriptor* %44, i32 0, i32 1
  %47 = getelementptr %dimension_descriptor, %dimension_descriptor* %44, i32 0, i32 2
  %48 = getelementptr %dimension_descriptor, %dimension_descriptor* %44, i32 0, i32 3
  store i32 1, i32* %45, align 4
  store i32 1, i32* %46, align 4
  store i32 %39, i32* %47, align 4
  %49 = load i32, i32* %47, align 4
  %50 = load i32, i32* %46, align 4
  %51 = sub i32 %49, %50
  %52 = add i32 %51, 1
  %53 = mul i32 1, %52
  store i32 %52, i32* %48, align 4
  %54 = getelementptr %array, %array* %b, i32 0, i32 0
  %55 = alloca i32, align 4
  %56 = mul i32 %53, 4
  store i32 %56, i32* %55, align 4
  %57 = load i32, i32* %55, align 4
  %58 = call i8* (i32, ...) @_lfortran_malloc(i32 %57)
  %59 = bitcast i8* %58 to i32*
  store i32* %59, i32** %54, align 8
  %60 = load i32, i32* %n, align 4
  %61 = getelementptr %array, %array* %c, i32 0, i32 1
  store i32 0, i32* %61, align 4
  %62 = getelementptr %array, %array* %c, i32 0, i32 3
  store i1 true, i1* %62, align 1
  %63 = getelementptr %array, %array* %c, i32 0, i32 2
  %64 = load %dimension_descriptor*, %dimension_descriptor** %63, align 8
  %65 = getelementptr inbounds %dimension_descriptor, %dimension_descriptor* %64, i32 0
  %66 = getelementptr %dimension_descriptor, %dimension_descriptor* %65, i32 0, i32 0
  %67 = getelementptr %dimension_descriptor, %dimension_descriptor* %65, i32 0, i32 1
  %68 = getelementptr %dimension_descriptor, %dimension_descriptor* %65, i32 0, i32 2
  %69 = getelementptr %dimension_descriptor, %dimension_descriptor* %65, i32 0, i32 3
  store i32 1, i32* %66, align 4
  store i32 1, i32* %67, align 4
  store i32 %60, i32* %68, align 4
  %70 = load i32, i32* %68, align 4
  %71 = load i32, i32* %67, align 4
  %72 = sub i32 %70, %71
  %73 = add i32 %72, 1
  %74 = mul i32 1, %73
  store i32 %73, i32* %69, align 4
  %75 = getelementptr %array, %array* %c, i32 0, i32 0
  %76 = alloca i32, align 4
  %77 = mul i32 %74, 4
  store i32 %77, i32* %76, align 4
  %78 = load i32, i32* %76, align 4
  %79 = call i8* (i32, ...) @_lfortran_malloc(i32 %78)
  %80 = bitcast i8* %79 to i32*
  store i32* %80, i32** %75, align 8
  store i32 0, i32* %ierr, align 4
  %81 = getelementptr %array, %array* %a, i32 0, i32 2
  %82 = load %dimension_descriptor*, %dimension_descriptor** %81, align 8
  %83 = getelementptr inbounds %dimension_descriptor, %dimension_descriptor* %82, i32 0
  %84 = getelementptr %dimension_descriptor, %dimension_descriptor* %83, i32 0, i32 1
  %85 = load i32, i32* %84, align 4
  %86 = sub i32 %85, 1
  store i32 %86, i32* %"1_k", align 4
  br label %loop.head

loop.head:                                        ; preds = %loop.body, %.entry
  %87 = load i32, i32* %"1_k", align 4
  %88 = add i32 %87, 1
  %89 = getelementptr %array, %array* %a, i32 0, i32 2
  %90 = load %dimension_descriptor*, %dimension_descriptor** %89, align 8
  %91 = getelementptr inbounds %dimension_descriptor, %dimension_descriptor* %90, i32 0
  %92 = getelementptr %dimension_descriptor, %dimension_descriptor* %91, i32 0, i32 2
  %93 = load i32, i32* %92, align 4
  %94 = icmp sle i32 %88, %93
  br i1 %94, label %loop.body, label %loop.end

loop.body:                                        ; preds = %loop.head
  %95 = load i32, i32* %"1_k", align 4
  %96 = add i32 %95, 1
  store i32 %96, i32* %"1_k", align 4
  %97 = load i32, i32* %"1_k", align 4
  %98 = getelementptr %array, %array* %a, i32 0, i32 2
  %99 = load %dimension_descriptor*, %dimension_descriptor** %98, align 8
  %100 = getelementptr inbounds %dimension_descriptor, %dimension_descriptor* %99, i32 0
  %101 = getelementptr %dimension_descriptor, %dimension_descriptor* %100, i32 0, i32 1
  %102 = load i32, i32* %101, align 4
  %103 = sub i32 %97, %102
  %104 = mul i32 1, %103
  %105 = add i32 0, %104
  %106 = getelementptr %dimension_descriptor, %dimension_descriptor* %100, i32 0, i32 3
  %107 = load i32, i32* %106, align 4
  %108 = mul i32 1, %107
  %109 = getelementptr %array, %array* %a, i32 0, i32 0
  %110 = load i32*, i32** %109, align 8
  %111 = getelementptr inbounds i32, i32* %110, i32 %105
  store i32 1, i32* %111, align 4
  br label %loop.head

loop.end:                                         ; preds = %loop.head
  %112 = getelementptr %array, %array* %b, i32 0, i32 2
  %113 = load %dimension_descriptor*, %dimension_descriptor** %112, align 8
  %114 = getelementptr inbounds %dimension_descriptor, %dimension_descriptor* %113, i32 0
  %115 = getelementptr %dimension_descriptor, %dimension_descriptor* %114, i32 0, i32 1
  %116 = load i32, i32* %115, align 4
  %117 = sub i32 %116, 1
  store i32 %117, i32* %"1_k", align 4
  br label %loop.head1

loop.head1:                                       ; preds = %loop.body2, %loop.end
  %118 = load i32, i32* %"1_k", align 4
  %119 = add i32 %118, 1
  %120 = getelementptr %array, %array* %b, i32 0, i32 2
  %121 = load %dimension_descriptor*, %dimension_descriptor** %120, align 8
  %122 = getelementptr inbounds %dimension_descriptor, %dimension_descriptor* %121, i32 0
  %123 = getelementptr %dimension_descriptor, %dimension_descriptor* %122, i32 0, i32 2
  %124 = load i32, i32* %123, align 4
  %125 = icmp sle i32 %119, %124
  br i1 %125, label %loop.body2, label %loop.end3

loop.body2:                                       ; preds = %loop.head1
  %126 = load i32, i32* %"1_k", align 4
  %127 = add i32 %126, 1
  store i32 %127, i32* %"1_k", align 4
  %128 = load i32, i32* %"1_k", align 4
  %129 = getelementptr %array, %array* %b, i32 0, i32 2
  %130 = load %dimension_descriptor*, %dimension_descriptor** %129, align 8
  %131 = getelementptr inbounds %dimension_descriptor, %dimension_descriptor* %130, i32 0
  %132 = getelementptr %dimension_descriptor, %dimension_descriptor* %131, i32 0, i32 1
  %133 = load i32, i32* %132, align 4
  %134 = sub i32 %128, %133
  %135 = mul i32 1, %134
  %136 = add i32 0, %135
  %137 = getelementptr %dimension_descriptor, %dimension_descriptor* %131, i32 0, i32 3
  %138 = load i32, i32* %137, align 4
  %139 = mul i32 1, %138
  %140 = getelementptr %array, %array* %b, i32 0, i32 0
  %141 = load i32*, i32** %140, align 8
  %142 = getelementptr inbounds i32, i32* %141, i32 %136
  store i32 2, i32* %142, align 4
  br label %loop.head1

loop.end3:                                        ; preds = %loop.head1
  %143 = getelementptr %array, %array* %c, i32 0, i32 2
  %144 = load %dimension_descriptor*, %dimension_descriptor** %143, align 8
  %145 = getelementptr inbounds %dimension_descriptor, %dimension_descriptor* %144, i32 0
  %146 = getelementptr %dimension_descriptor, %dimension_descriptor* %145, i32 0, i32 1
  %147 = load i32, i32* %146, align 4
  %148 = sub i32 %147, 1
  store i32 %148, i32* %"1_k", align 4
  br label %loop.head4

loop.head4:                                       ; preds = %loop.body5, %loop.end3
  %149 = load i32, i32* %"1_k", align 4
  %150 = add i32 %149, 1
  %151 = getelementptr %array, %array* %c, i32 0, i32 2
  %152 = load %dimension_descriptor*, %dimension_descriptor** %151, align 8
  %153 = getelementptr inbounds %dimension_descriptor, %dimension_descriptor* %152, i32 0
  %154 = getelementptr %dimension_descriptor, %dimension_descriptor* %153, i32 0, i32 2
  %155 = load i32, i32* %154, align 4
  %156 = icmp sle i32 %150, %155
  br i1 %156, label %loop.body5, label %loop.end6

loop.body5:                                       ; preds = %loop.head4
  %157 = load i32, i32* %"1_k", align 4
  %158 = add i32 %157, 1
  store i32 %158, i32* %"1_k", align 4
  %159 = load i32, i32* %"1_k", align 4
  %160 = getelementptr %array, %array* %c, i32 0, i32 2
  %161 = load %dimension_descriptor*, %dimension_descriptor** %160, align 8
  %162 = getelementptr inbounds %dimension_descriptor, %dimension_descriptor* %161, i32 0
  %163 = getelementptr %dimension_descriptor, %dimension_descriptor* %162, i32 0, i32 1
  %164 = load i32, i32* %163, align 4
  %165 = sub i32 %159, %164
  %166 = mul i32 1, %165
  %167 = add i32 0, %166
  %168 = getelementptr %dimension_descriptor, %dimension_descriptor* %162, i32 0, i32 3
  %169 = load i32, i32* %168, align 4
  %170 = mul i32 1, %169
  %171 = getelementptr %array, %array* %c, i32 0, i32 0
  %172 = load i32*, i32** %171, align 8
  %173 = getelementptr inbounds i32, i32* %172, i32 %167
  store i32 3, i32* %173, align 4
  br label %loop.head4

loop.end6:                                        ; preds = %loop.head4
  %174 = alloca %array, align 8
  %175 = alloca %array, align 8
  %176 = alloca %array, align 8
  %177 = call i32 @whole_square(%array* %a, %array* %b, %array* %c)
  call void (i8*, ...) @_lfortran_printf(i8* getelementptr inbounds ([4 x i8], [4 x i8]* @0, i32 0, i32 0), i32 %177)
  %178 = getelementptr %array, %array* %a, i32 0, i32 3
  %179 = load i1, i1* %178, align 1
  br i1 %179, label %then, label %else

then:                                             ; preds = %loop.end6
  %180 = getelementptr %array, %array* %a, i32 0, i32 0
  %181 = load i32*, i32** %180, align 8
  %182 = alloca i8*, align 8
  %183 = bitcast i32* %181 to i8*
  store i8* %183, i8** %182, align 8
  %184 = load i8*, i8** %182, align 8
  call void (i8*, ...) @_lfortran_free(i8* %184)
  %185 = getelementptr %array, %array* %a, i32 0, i32 3
  store i1 false, i1* %185, align 1
  br label %ifcont

else:                                             ; preds = %loop.end6
  br label %ifcont

ifcont:                                           ; preds = %else, %then
  %186 = getelementptr %array, %array* %b, i32 0, i32 3
  %187 = load i1, i1* %186, align 1
  br i1 %187, label %then7, label %else8

then7:                                            ; preds = %ifcont
  %188 = getelementptr %array, %array* %b, i32 0, i32 0
  %189 = load i32*, i32** %188, align 8
  %190 = alloca i8*, align 8
  %191 = bitcast i32* %189 to i8*
  store i8* %191, i8** %190, align 8
  %192 = load i8*, i8** %190, align 8
  call void (i8*, ...) @_lfortran_free(i8* %192)
  %193 = getelementptr %array, %array* %b, i32 0, i32 3
  store i1 false, i1* %193, align 1
  br label %ifcont9

else8:                                            ; preds = %ifcont
  br label %ifcont9

ifcont9:                                          ; preds = %else8, %then7
  %194 = getelementptr %array, %array* %c, i32 0, i32 3
  %195 = load i1, i1* %194, align 1
  br i1 %195, label %then10, label %else11

then10:                                           ; preds = %ifcont9
  %196 = getelementptr %array, %array* %c, i32 0, i32 0
  %197 = load i32*, i32** %196, align 8
  %198 = alloca i8*, align 8
  %199 = bitcast i32* %197 to i8*
  store i8* %199, i8** %198, align 8
  %200 = load i8*, i8** %198, align 8
  call void (i8*, ...) @_lfortran_free(i8* %200)
  %201 = getelementptr %array, %array* %c, i32 0, i32 3
  store i1 false, i1* %201, align 1
  br label %ifcont12

else11:                                           ; preds = %ifcont9
  br label %ifcont12

ifcont12:                                         ; preds = %else11, %then10
  ret i32 0
}

declare void @_lfortran_printf(i8*, ...)
